Data transformation (II)
…
# Data transformation (II)
## Piping and conditional transformations
### Aitor Ameztegui
### Fall 2021

---

# Remember our data set

```r
trees
```

```
## # A tibble: 111,756 x 10
##    Codi   Provincia Especie Rumbo  Dist      N    CD DiamIf3 DiamIf2 HeiIf3
##    <fct>  <chr>     <fct>   <dbl> <dbl>  <dbl> <dbl>   <dbl>   <dbl>  <dbl>
##  1 080001 08        022         7  8.3   31.8     20    20.3    18.9    9  
##  2 080002 08        476        38  9.1   31.8     35    34      32.4    9  
##  3 080003 08        021        25  7     31.8     25    24.8    17.6   11  
##  4 080004 08        021        28  8.89  31.8     15    16.8    12.6    9.5
##  5 080006 08        021        19 11.2   14.1     35    34.0    30.9   13  
##  6 080007 08        021        32 12     14.1     35    33.1    28.2   10  
##  7 080008 08        243        40  7.8   31.8     15    15      13.2    6  
##  8 080009 08        045        16  5.09  31.8     20    17.5    15.3    7  
##  9 080010 08        243        47 26.9    5.09    65    67.4    66.8   16.5
## 10 080013 08        022        44  2.7  127.      15    15.1    12.6    9.5
## # ... with 111,746 more rows
```

---

# Remember our data set

```r
plots
```

```
## # A tibble: 11,858 x 17
##    Codi   Provincia Cla   Subclase FccTot FccArb FechaIni   HoraIni            
##    <fct>  <fct>     <fct> <fct>     <int>  <int> <date>     <dttm>             
##  1 080001 08        A     1            80     70 2001-07-09 2017-11-26 09:44:00
##  2 080002 08        A     1            80     70 2001-08-06 2017-11-26 09:18:58
##  3 080003 08        A     1            90     80 2001-08-06 2017-11-26 12:08:09
##  4 080004 08        A     1            90     50 2001-07-09 2017-11-26 13:23:23
##  5 080005 08        A     1            70     60 2001-08-03 2017-11-26 09:11:28
##  6 080006 08        A     1            90     90 2001-08-01 2017-11-26 13:00:33
##  7 080007 08        A     1            90     90 2001-08-07 2017-11-26 10:08:15
##  8 080008 08        A     1            70     60 2001-08-03 2017-11-26 12:12:03
##  9 080009 08        A     1            80     70 2001-08-02 2017-11-26 09:00:16
## 10 080010 08        A     1            80     80 2001-06-14 2017-11-26 12:34:21
## # ... with 11,848 more rows, and 9 more variables: FechaFin <date>, HoraFin <dttm>,
## #   Rocosid <int>, Textura <int>, MatOrg <int>, PhSuelo <int>, FechaPh <date>,
## #   Dom_sp2 <fct>, Dom_sp3 <fct>
```
…
