Functional programming within the tidyverse
…
---

# Functional sequences

So we can now apply the pseudofunctions to any dataframe:

```r
mean_plot_growth(lleida_trees)
```

```
## # A tibble: 2,235 x 2
##    Codi   mean_growth
##  * <fct>        <dbl>
##  1 250001        3.59
##  2 250002        3.73
##  3 250003        8.40
##  4 250004        2.69
##  5 250005        2.91
##  6 250006        2.85
##  7 250007        2.83
##  8 250008        2.56
##  9 250010        2.05
## 10 250011        8.36
## # ... with 2,225 more rows
```

---
# Functional sequences

So we can now apply the pseudofunctions to any dataframe:

```r
mean_plot_growth(barcelona_trees)
```

```
## # A tibble: 2,429 x 2
##    Codi   mean_growth
##  * <fct>        <dbl>
##  1 080001        3.33
##  2 080002        3.63
##  3 080003        5.93
##  4 080004        6.55
##  5 080005        2.08
##  6 080006        2.28
##  7 080007        2.45
##  8 080008        1.79
##  9 080009        1.86
## 10 080010        3.33
## # ... with 2,419 more rows
```

---
# Functional sequences

So we can now apply the pseudofunctions to any dataframe:

```r
girona_trees %>% mean_plot_growth()     # different flavour of the same operation
```

```
## # A tibble: 2,113 x 2
##    Codi   mean_growth
##  * <fct>        <dbl>
##  1 170004        2.99
##  2 170005        1.86
##  3 170006        1.75
##  4 170007        3.14
##  5 170008        1.68
##  6 170009        1.48
##  7 170010        2.40
##  8 170012        2.11
##  9 170013        1.55
## 10 170014        5.38
## # ... with 2,103 more rows
```

---
# Functional sequences

.pull-left[
We can even combine the functional sequence with any other `tidyverse` functions...

```r
lleida_trees %>%
    filter(Especie == "021") %>%
    mean_plot_growth()
```

```
## # A tibble: 923 x 2
##    Codi   mean_growth
##  * <fct>        <dbl>
##  1 250029        3.93
##  2 250034        4.48
##  3 250040        2.38
##  4 250044        1.88
##  5 250045        2.03
##  6 250051        2.29
##  7 250052        2.37
##  8 250053        5.31
##  9 250054        3.6 
## 10 250058        3.13
## # ... with 913 more rows
```
]
---
# Functional sequences

.pull-left[
We can even combine the functional sequence with any other `tidyverse` functions...

```r
lleida_trees %>%
    filter(Especie == "021") %>%
    mean_plot_growth()
```

```
## # A tibble: 923 x 2
##    Codi   mean_growth
##  * <fct>        <dbl>
##  1 250029        3.93
##  2 250034        4.48
##  3 250040        2.38
##  4 250044        1.88
##  5 250045        2.03
##  6 250051        2.29
##  7 250052        2.37
##  8 250053        5.31
##  9 250054        3.6 
## 10 250058        3.13
## # ... with 913 more rows
```
]
.pull-right[
</br>
</br>
... or even use it within a piping sequence:

```r
lleida_trees %>%
    mean_plot_growth() %>%
    filter(mean_growth >= 5)
```

```
## # A tibble: 228 x 2
##    Codi   mean_growth
##    <fct>        <dbl>
##  1 250003        8.40
##  2 250011        8.36
##  3 250016       12.4 
##  4 250021        5.54
##  5 250024        7.66
##  6 250032        5.34
##  7 250037        6.16
##  8 250043       12.0 
##  9 250049        7.75
## 10 250069        5.41
## # ... with 218 more rows
```
…
---

# Functions
or can be applied within code chunks in the same way as any other built-in function:

```r
trees %>% 
    mutate_at(.vars=c("DiamIf2", "DiamIf3"),
              .funs = rescale) 
```

```
## # A tibble: 111,756 x 10
##    Codi   Provincia Especie Rumbo  Dist      N    CD DiamIf3 DiamIf2 HeiIf3
##    <fct>  <chr>     <fct>   <dbl> <dbl>  <dbl> <dbl>   <dbl>   <dbl>  <dbl>
##  1 080001 08        022         7  8.3   31.8     20  0.0650  0.0581    9  
##  2 080002 08        476        38  9.1   31.8     35  0.135   0.127     9  
##  3 080003 08        021        25  7     31.8     25  0.0879  0.0512   11  
##  4 080004 08        021        28  8.89  31.8     15  0.0475  0.0262    9.5
##  5 080006 08        021        19 11.2   14.1     35  0.135   0.119    13  
##  6 080007 08        021        32 12     14.1     35  0.130   0.105    10  
##  7 080008 08        243        40  7.8   31.8     15  0.0381  0.0293    6  
##  8 080009 08        045        16  5.09  31.8     20  0.0508  0.0398    7  
##  9 080010 08        243        47 26.9    5.09    65  0.304   0.302    16.5
## 10 080013 08        022        44  2.7  127.      15  0.0386  0.0260    9.5
## # ... with 111,746 more rows
```
…
# Create functions

```r
mean_plot_growth(lleida_trees)
```

```
## # A tibble: 2,235 x 2
##    Codi   mean_growth
##  * <fct>        <dbl>
##  1 250001        3.59
##  2 250002        3.73
##  3 250003        8.40
##  4 250004        2.69
##  5 250005        2.91
##  6 250006        2.85
##  7 250007        2.83
##  8 250008        2.56
##  9 250010        2.05
## 10 250011        8.36
## # ... with 2,225 more rows
```
…
---

# Tidy eval: Programming in the tidyverse

`{{}}` makes it possible to supply variables from the data frame to your wrapper function:

```r
mean_plot_growth2(lleida_trees, Codi)
```

```
## # A tibble: 2,235 x 2
##    Codi   mean_growth
##  * <fct>        <dbl>
##  1 250001        3.59
##  2 250002        3.73
##  3 250003        8.40
##  4 250004        2.69
##  5 250005        2.91
##  6 250006        2.85
##  7 250007        2.83
##  8 250008        2.56
##  9 250010        2.05
## 10 250011        8.36
## # ... with 2,225 more rows
```
…
