Iteration
…
---
# The map functions

If we want a data frame...

```r
map(provinces, mean_growth, Especie) %>%
    bind_rows()
```

```
## # A tibble: 198 x 3
## # Groups:   Provincia [4]
##    Provincia Especie mean_growth
##    <chr>     <fct>         <dbl>
##  1 25        019            2.88
##  2 25        021            3.09
##  3 25        022            2.44
##  4 25        024            2.99
##  5 25        025            2.93
##  6 25        031            4.04
##  7 25        042            2.39
##  8 25        044            2.24
##  9 25        045            1.46
## 10 25        050            4.53
## # … with 188 more rows
```
…
```
##          x1          x2          x3 
## "10.007854" "19.181065" "49.904329"
```

---
# The family of map functions

```r
map_df(provinces, mean_growth, Especie) 
```

```
## # A tibble: 198 x 3
## # Groups:   Provincia [4]
##    Provincia Especie mean_growth
##    <chr>     <fct>         <dbl>
##  1 25        019            2.88
##  2 25        021            3.09
##  3 25        022            2.44
##  4 25        024            2.99
##  5 25        025            2.93
##  6 25        031            4.04
##  7 25        042            2.39
##  8 25        044            2.24
##  9 25        045            1.46
## 10 25        050            4.53
## # … with 188 more rows
```
…
