Lab 03 - Data transformation
…
plots [11,858 x 15]: all the IFN3 plots in Catalonia, with info about the date and time of measurement, soil texture and soil pH, total canopy cover and tree canopy cover, etc.

trees [111,756 x 12]: contains all the adult trees (diam > 7.5 cm) measured both in IFN2 and IFN3. Contains info about the plot, the species, diameter class, diameter measured at IFN2 and IFN3

species [14,778 x 15]: contains the number of trees/ha per species and diameter class.

coordinates [11,858 x 6]: contains the X & Y coordinates of each IFN3 plot.

leaf [10447 x 3]: leaf biomass and carbon content for those IFN3 plots where it is available

First thing to do is to have a look at the data, to get familiar with the data they contain.

plots

# A tibble: 11,858 x 15
   Codi   Provincia Cla   Subclase FccTot FccArb FechaIni  
   <fct>  <chr>     <fct> <fct>     <int>  <int> <date>    
 1 080001 08        A     1            80     70 2001-07-09
 2 080002 08        A     1            80     70 2001-08-06
 3 080003 08        A     1            90     80 2001-08-06
 4 080004 08        A     1            90     50 2001-07-09
 5 080005 08        A     1            70     60 2001-08-03
 6 080006 08        A     1            90     90 2001-08-01
 7 080007 08        A     1            90     90 2001-08-07
 8 080008 08        A     1            70     60 2001-08-03
 9 080009 08        A     1            80     70 2001-08-02
10 080010 08        A     1            80     80 2001-06-14
# ... with 11,848 more rows, and 8 more variables: HoraIni <dttm>,
#   FechaFin <date>, HoraFin <dttm>, Rocosid <int>, Textura <int>,
#   MatOrg <int>, PhSuelo <int>, FechaPh <date>

trees

# A tibble: 111,756 x 10
   Codi  Provincia Especie Rumbo  Dist      N    CD DiamIf3 DiamIf2 HeiIf3
   <fct> <chr>     <fct>   <dbl> <dbl>  <dbl> <dbl>   <dbl>   <dbl>  <dbl>
 1 0800 08        022         7  8.3   31.8     20    20.3    18.9    9  
 2 0800 08        476        38  9.1   31.8     35    34      32.4    9  
 3 0800 08        021        25  7     31.8     25    24.8    17.6   11  
 4 0800 08        021        28  8.89  31.8     15    16.8    12.6    9.5
 5 0800 08        021        19 11.2   14.1     35    34.0    30.9   13  
 6 0800 08        021        32 12     14.1     35    33.1    28.2   10  
 7 0800 08        243        40  7.8   31.8     15    15      13.2    6  
 8 0800 08        045        16  5.09  31.8     20    17.5    15.3    7  
 9 0800 08        243        47 26.9    5.09    65    67.4    66.8   16.5
10 0800 08        022        44  2.7  127.      15    15.1    12.6    9.5
# ... with 111,746 more rows
…
filter(gapminder, year == 1997)

# A tibble: 142 x 6
   country     continent  year lifeExp       pop gdpPercap
   <fct>       <fct>     <int>   <dbl>     <int>     <dbl>
 1 Afghanistan Asia       1997    41.8  22227415      635.
 2 Albania     Europe     1997    73.0   3428038     3193.
 3 Algeria     Africa     1997    69.2  29072015     4797.
 4 Angola      Africa     1997    41.0   9875024     2277.
 5 Argentina   Americas   1997    73.3  36203463    10967.
 6 Australia   Oceania    1997    78.8  18565243    26998.
 7 Austria     Europe     1997    77.5   8069876    29096.
 8 Bahrain     Asia       1997    73.9    598561    20292.
 9 Bangladesh  Asia       1997    59.4 123315288      973.
10 Belgium     Europe     1997    77.5  10199787    27561.
# ... with 132 more rows

We can also use the operator %in% to select various cases

filter(gapminder, country %in% c("Spain", "France", "Andorra"))

# A tibble: 24 x 6
   country continent  year lifeExp      pop gdpPercap
   <fct>   <fct>     <int>   <dbl>    <int>     <dbl>
 1 France  Europe     1952    67.4 42459667     7030.
 2 France  Europe     1957    68.9 44310863     8663.
 3 France  Europe     1962    70.5 47124000    10560.
 4 France  Europe     1967    71.6 49569000    13000.
 5 France  Europe     1972    72.4 51732000    16107.
 6 France  Europe     1977    73.8 53165019    18293.
 7 France  Europe     1982    74.9 54433565    20294.
 8 France  Europe     1987    76.3 55630100    22066.
 9 France  Europe     1992    77.5 57374179    24704.
10 France  Europe     1997    78.6 58623428    25890.
# ... with 14 more rows

We can use most logical operators (&, |, ==, >, <=, etc.) inside filter, to determine if we want to filter several values, observations in which a variables gets a value higher than some threshold, etc. (see Lab # for more examples).

1.0.2 select

select allows to retain only some columns, based on their name. As in filter, the first argument of selectis a data frame, and the following arguments are the columns we want to keep.

select(gapminder, country)

# A tibble: 1,704 x 1
   country    
   <fct>      
 1 Afghanistan
 2 Afghanistan
 3 Afghanistan
 4 Afghanistan
 5 Afghanistan
 6 Afghanistan
 7 Afghanistan
 8 Afghanistan
 9 Afghanistan
10 Afghanistan
# ... with 1,694 more rows

select(gapminder, country, year, lifeExp)

# A tibble: 1,704 x 3
   country      year lifeExp
   <fct>       <int>   <dbl>
 1 Afghanistan  1952    28.8
 2 Afghanistan  1957    30.3
 3 Afghanistan  1962    32.0
 4 Afghanistan  1967    34.0
 5 Afghanistan  1972    36.1
 6 Afghanistan  1977    38.4
 7 Afghanistan  1982    39.9
 8 Afghanistan  1987    40.8
 9 Afghanistan  1992    41.7
10 Afghanistan  1997    41.8
# ... with 1,694 more rows

We can also decide which columns we DO NOT want to select by adding -before the name

select(gapminder, -year)

# A tibble: 1,704 x 5
   country     continent lifeExp      pop gdpPercap
   <fct>       <fct>       <dbl>    <int>     <dbl>
 1 Afghanistan Asia         28.8  8425333      779.
 2 Afghanistan Asia         30.3  9240934      821.
 3 Afghanistan Asia         32.0 10267083      853.
 4 Afghanistan Asia         34.0 11537966      836.
 5 Afghanistan Asia         36.1 13079460      740.
 6 Afghanistan Asia         38.4 14880372      786.
 7 Afghanistan Asia         39.9 12881816      978.
 8 Afghanistan Asia         40.8 13867957      852.
 9 Afghanistan Asia         41.7 16317921      649.
10 Afghanistan Asia         41.8 22227415      635.
# ... with 1,694 more rows
…
  Package               Library
  tidyselect            /Library/Frameworks/R.framework/Versions/3.5/Resources/library
  dplyr                 /Library/Frameworks/R.framework/Versions/3.5/Resources/library

Using the first match ...

1.0.3 arrange

arrange sorts the data frame based on the values of one or more variables (columns). The first argument will be, as usual, the data frame we want to sort, and then we must specify the variables that determine the ordering. If we specify more than 1 variable, the succesive variables will be used to decide order when there are ties (i.e.secondary sorting variables). We can also use desc(x) to sort in decreasing order.

arrange(gapminder, lifeExp)

# A tibble: 1,704 x 6
   country      continent  year lifeExp     pop gdpPercap
   <fct>        <fct>     <int>   <dbl>   <int>     <dbl>
 1 Rwanda       Africa     1992    23.6 7290203      737.
 2 Afghanistan  Asia       1952    28.8 8425333      779.
 3 Gambia       Africa     1952    30    284320      485.
 4 Angola       Africa     1952    30.0 4232095     3521.
 5 Sierra Leone Africa     1952    30.3 2143249      880.
 6 Afghanistan  Asia       1957    30.3 9240934      821.
 7 Cambodia     Asia       1977    31.2 6978607      525.
 8 Mozambique   Africa     1952    31.3 6446316      469.
 9 Sierra Leone Africa     1957    31.6 2295678     1004.
10 Burkina Faso Africa     1952    32.0 4469979      543.
# ... with 1,694 more rows

arrange(gapminder, desc(lifeExp))

# A tibble: 1,704 x 6
   country          continent  year lifeExp       pop gdpPercap
   <fct>            <fct>     <int>   <dbl>     <int>     <dbl>
 1 Japan            Asia       2007    82.6 127467972    31656.
 2 Hong Kong, China Asia       2007    82.2   6980412    39725.
 3 Japan            Asia       2002    82   127065841    28605.
 4 Iceland          Europe     2007    81.8    301931    36181.
 5 Switzerland      Europe     2007    81.7   7554661    37506.
 6 Hong Kong, China Asia       2002    81.5   6762476    30209.
 7 Australia        Oceania    2007    81.2  20434176    34435.
 8 Spain            Europe     2007    80.9  40448191    28821.
 9 Sweden           Europe     2007    80.9   9031088    33860.
10 Israel           Asia       2007    80.7   6426679    25523.
# ... with 1,694 more rows

arrange(gapminder, desc(year), desc(lifeExp))

# A tibble: 1,704 x 6
   country          continent  year lifeExp       pop gdpPercap
   <fct>            <fct>     <int>   <dbl>     <int>     <dbl>
 1 Japan            Asia       2007    82.6 127467972    31656.
 2 Hong Kong, China Asia       2007    82.2   6980412    39725.
 3 Iceland          Europe     2007    81.8    301931    36181.
 4 Switzerland      Europe     2007    81.7   7554661    37506.
 5 Australia        Oceania    2007    81.2  20434176    34435.
 6 Spain            Europe     2007    80.9  40448191    28821.
 7 Sweden           Europe     2007    80.9   9031088    33860.
 8 Israel           Asia       2007    80.7   6426679    25523.
 9 France           Europe     2007    80.7  61083916    30470.
10 Canada           Americas   2007    80.7  33390141    36319.
# ... with 1,694 more rows

1.0.4 mutate

mutate allows us to create new variables with a certain value or as combination of existing variables. We just need to specify the data frame, and indicate the new variables name and its value, which can be related to existing variables:

gdp_data <- mutate(gapminder, fixed_num = 1, number = 1:nrow(gapminder), code = "foo", 
    gdp = ((gdpPercap * pop)/10^9))

gdp_data

# A tibble: 1,704 x 10
   country continent  year lifeExp    pop gdpPercap fixed_num number code 
   <fct>   <fct>     <int>   <dbl>  <int>     <dbl>     <dbl>  <int> <chr>
 1 Afghan Asia       1952    28.8 8.43e6      779.         1      1 foo  
 2 Afghan Asia       1957    30.3 9.24e6      821.         1      2 foo  
 3 Afghan Asia       1962    32.0 1.03e7      853.         1      3 foo  
 4 Afghan Asia       1967    34.0 1.15e7      836.         1      4 foo  
 5 Afghan Asia       1972    36.1 1.31e7      740.         1      5 foo  
 6 Afghan Asia       1977    38.4 1.49e7      786.         1      6 foo  
 7 Afghan Asia       1982    39.9 1.29e7      978.         1      7 foo  
 8 Afghan Asia       1987    40.8 1.39e7      852.         1      8 foo  
 9 Afghan Asia       1992    41.7 1.63e7      649.         1      9 foo  
10 Afghan Asia       1997    41.8 2.22e7      635.         1     10 foo  
# ... with 1,694 more rows, and 1 more variable: gdp <dbl>

arrange(gdp_data, desc(year), desc(gdp))

# A tibble: 1,704 x 10
   country continent  year lifeExp    pop gdpPercap fixed_num number code 
   <fct>   <fct>     <int>   <dbl>  <int>     <dbl>     <dbl>  <int> <chr>
 1 United Americas   2007    78.2 3.01e8    42952.         1   1620 foo  
 2 China   Asia       2007    73.0 1.32e9     4959.         1    300 foo  
 3 Japan   Asia       2007    82.6 1.27e8    31656.         1    804 foo  
 4 India   Asia       2007    64.7 1.11e9     2452.         1    708 foo  
 5 Germany Europe     2007    79.4 8.24e7    32170.         1    576 foo  
 6 United Europe     2007    79.4 6.08e7    33203.         1   1608 foo  
 7 France  Europe     2007    80.7 6.11e7    30470.         1    540 foo  
 8 Brazil  Americas   2007    72.4 1.90e8     9066.         1    180 foo  
 9 Italy   Europe     2007    80.5 5.81e7    28570.         1    780 foo  
10 Mexico  Americas   2007    76.2 1.09e8    11978.         1    996 foo  
# ... with 1,694 more rows, and 1 more variable: gdp <dbl>
…
summarise(by_continent, life = median(lifeExp))

# A tibble: 5 x 2
  continent  life
  <fct>     <dbl>
1 Africa     47.8
2 Americas   67.0
3 Asia       61.8
4 Europe     72.2
5 Oceania    73.7

summarise(by_continent_year, life = median(lifeExp))

# A tibble: 60 x 3
# Groups:   continent [?]
   continent  year  life
   <fct>     <int> <dbl>
 1 Africa     1952  38.8
 2 Africa     1957  40.6
 3 Africa     1962  42.6
 4 Africa     1967  44.7
 5 Africa     1972  47.0
 6 Africa     1977  49.3
 7 Africa     1982  50.8
 8 Africa     1987  51.6
 9 Africa     1992  52.4
10 Africa     1997  52.8
# ... with 50 more rows

summarise(by_continent_year, gdp = mean(gdpPercap))

# A tibble: 60 x 3
# Groups:   continent [?]
   continent  year   gdp
   <fct>     <int> <dbl>
 1 Africa     1952 1253.
 2 Africa     1957 1385.
 3 Africa     1962 1598.
 4 Africa     1967 2050.
 5 Africa     1972 2340.
 6 Africa     1977 2586.
 7 Africa     1982 2482.
 8 Africa     1987 2283.
 9 Africa     1992 2282.
10 Africa     1997 2379.
# ... with 50 more rows
…
Exercise 6 Lets do some exercises. Using the pipe operator, lets create pipelines to solve the next exercises:

Ex.6.1 Which plots have the greatest average growth between IFN2 and IFN3?

We first define the data frame we will work with. THEN (%>%) we create a new variable with the growth of each tree, THEN we group by plot, THEN we calculate, for each plot, the mean growth, and THEN we arrange the results in decreasing order. The resulting code would be:

trees %>% mutate(growth = DiamIf3 - DiamIf2) %>% group_by(Codi) %>% summarise(av_growth = mean(growth), 
    n = n()) %>% arrange(desc(av_growth))

# A tibble: 7,713 x 3
   Codi   av_growth     n
   <fct>      <dbl> <int>
 1 171089      23.1     3
 2 170819      21.6     1
 3 172607      17.6     6
 4 172216      17.4     6
 5 172690      16.0    17
 6 171682      15.4     6
 7 083267      15.3     1
 8 431363      15.1     4
 9 171664      14.8     5
10 171976      14.4     1
# ... with 7,703 more rows

Ex.6.2 Which is the plot with highest species richness?

First, we define thedata frame (trees), THEN we group by Code, THEN we determine the number of species per plot and THEN we arrange in decreasing order:

trees %>% group_by(Codi) %>% summarise(n_species = n_distinct(Especie)) %>% 
    arrange(desc(n_species))

# A tibble: 7,713 x 2
   Codi   n_species
   <fct>      <int>
 1 170195         9
 2 171036         9
 3 170218         8
 4 170121         7
 5 170596         7
 6 170635         7
 7 170799         7
 8 171398         7
 9 171481         7
10 172650         7
# ... with 7,703 more rows
…
