Data transformation (I): Create new variables, filter, select and organize data
…
plots [11858 x 15]: contains all plots from the Third Spanish Forest Inventory (IFN3) in Catalonia

trees [111756 x 12]: all trees with dbh > 7.5 cm measured in both the second and the third forest inventory (IFN2 and IFN3)

species [14778 x 15]: number of trees per hectare in each plot, per species and size class

coordinates [11858 x 6]: X and Y UTM coordinates of each plot.

leaf [10447 x 3]: leaf biomass and carbon content for those IFN3 plots where they were available .

Let’s have a look at the data

plots

## # A tibble: 11,858 x 17
##    Codi  Provincia Cla   Subclase FccTot FccArb FechaIni   HoraIni            
##    <fct> <fct>     <fct> <fct>     <int>  <int> <date>     <dttm>             
##  1 0800~ 08        A     1            80     70 2001-07-09 2017-11-26 09:44:00
##  2 0800~ 08        A     1            80     70 2001-08-06 2017-11-26 09:18:58
##  3 0800~ 08        A     1            90     80 2001-08-06 2017-11-26 12:08:09
##  4 0800~ 08        A     1            90     50 2001-07-09 2017-11-26 13:23:23
##  5 0800~ 08        A     1            70     60 2001-08-03 2017-11-26 09:11:28
##  6 0800~ 08        A     1            90     90 2001-08-01 2017-11-26 13:00:33
##  7 0800~ 08        A     1            90     90 2001-08-07 2017-11-26 10:08:15
##  8 0800~ 08        A     1            70     60 2001-08-03 2017-11-26 12:12:03
##  9 0800~ 08        A     1            80     70 2001-08-02 2017-11-26 09:00:16
## 10 0800~ 08        A     1            80     80 2001-06-14 2017-11-26 12:34:21
## # ... with 11,848 more rows, and 9 more variables: FechaFin <date>,
## #   HoraFin <dttm>, Rocosid <int>, Textura <int>, MatOrg <int>, PhSuelo <int>,
## #   FechaPh <date>, Dom_sp2 <fct>, Dom_sp3 <fct>

trees

## # A tibble: 111,756 x 10
##    Codi   Provincia Especie Rumbo  Dist      N    CD DiamIf3 DiamIf2 HeiIf3
##    <fct>  <chr>     <fct>   <dbl> <dbl>  <dbl> <dbl>   <dbl>   <dbl>  <dbl>
##  1 080001 08        022         7  8.3   31.8     20    20.3    18.9    9  
##  2 080002 08        476        38  9.1   31.8     35    34      32.4    9  
##  3 080003 08        021        25  7     31.8     25    24.8    17.6   11  
##  4 080004 08        021        28  8.89  31.8     15    16.8    12.6    9.5
##  5 080006 08        021        19 11.2   14.1     35    34.0    30.9   13  
##  6 080007 08        021        32 12     14.1     35    33.1    28.2   10  
##  7 080008 08        243        40  7.8   31.8     15    15      13.2    6  
##  8 080009 08        045        16  5.09  31.8     20    17.5    15.3    7  
##  9 080010 08        243        47 26.9    5.09    65    67.4    66.8   16.5
## 10 080013 08        022        44  2.7  127.      15    15.1    12.6    9.5
## # ... with 111,746 more rows

species

## # A tibble: 14,778 x 15
##    Codi  Especie CD_10 CD_15 CD_20 CD_25 CD_30 CD_35 CD_40 CD_45 CD_50 CD_55
##    <fct> <fct>   <dbl> <dbl> <dbl> <dbl> <dbl> <dbl> <dbl> <dbl> <dbl> <dbl>
##  1 0800~ 022         0 159.   31.8 111.  60.1   19.2  5.09   0    0        0
##  2 0800~ 021         0   0     0     0    0     74.2 28.3   63.7  0        0
##  3 0800~ 022         0   0     0   173.  31.8    0    0      0    0        0
##  4 0800~ 476         0   0     0     0    0     31.8  0      0    0        0
##  5 0800~ 021         0   0     0    31.8  0      0    0      0    5.09     0
##  6 0800~ 022         0 127.    0     0   46.0  127.   0     14.1  0        0
##  7 0800~ 021         0  31.8   0     0   31.8    0    0      0    0        0
##  8 0800~ 071         0   0     0    14.1  5.09  31.8  0      0    0        0
##  9 0800~ 243         0   0    14.1   0   14.1    0    5.09   0    0        0
## 10 0800~ 278         0 286.   31.8   0    0     31.8  0      0    0        0
## # ... with 14,768 more rows, and 3 more variables: CD_60 <dbl>, CD_65 <dbl>,
## #   CD_70 <dbl>

coordinates

## # A tibble: 11,766 x 6
##    Codi   Provincia Estadillo Cla    CoorX   CoorY
##    <fct>  <chr>     <chr>     <fct>  <int>   <int>
##  1 080001 08        0001      A     402000 4684000
##  2 080002 08        0002      A     400000 4683000
##  3 080003 08        0003      A     401000 4683000
##  4 080004 08        0004      A     402000 4683000
##  5 080005 08        0005      A     400000 4682000
##  6 080006 08        0006      A     397000 4681000
##  7 080007 08        0007      A     399000 4681000
##  8 080008 08        0008      A     401000 4681000
##  9 080009 08        0009      A     402000 4681000
## 10 080010 08        0010      A     394000 4680000
## # ... with 11,756 more rows

leaf

## # A tibble: 10,447 x 3
##    Codi   leaf_biomass leaf_carbon
##    <chr>         <dbl>       <dbl>
##  1 080001        4.99        2.58 
##  2 080002        2.39        1.23 
##  3 080003        2.97        1.53 
##  4 080004        0.395       0.200
##  5 080005        1.34        0.644
##  6 080006        4.03        2.07 
##  7 080007        5.97        3.04 
##  8 080008        0.928       0.452
##  9 080009        3.85        1.94 
## 10 080010        1.54        0.758
## # ... with 10,437 more rows
…
Nonetheless, we can just invoke the objects to check them, as we did previously:

trees

## # A tibble: 111,756 x 10
##    Codi   Provincia Especie Rumbo  Dist      N    CD DiamIf3 DiamIf2 HeiIf3
##    <fct>  <chr>     <fct>   <dbl> <dbl>  <dbl> <dbl>   <dbl>   <dbl>  <dbl>
##  1 080001 08        022         7  8.3   31.8     20    20.3    18.9    9  
##  2 080002 08        476        38  9.1   31.8     35    34      32.4    9  
##  3 080003 08        021        25  7     31.8     25    24.8    17.6   11  
##  4 080004 08        021        28  8.89  31.8     15    16.8    12.6    9.5
##  5 080006 08        021        19 11.2   14.1     35    34.0    30.9   13  
##  6 080007 08        021        32 12     14.1     35    33.1    28.2   10  
##  7 080008 08        243        40  7.8   31.8     15    15      13.2    6  
##  8 080009 08        045        16  5.09  31.8     20    17.5    15.3    7  
##  9 080010 08        243        47 26.9    5.09    65    67.4    66.8   16.5
## 10 080013 08        022        44  2.7  127.      15    15.1    12.6    9.5
## # ... with 111,746 more rows
…
Let’s see a few basic examples applied to the trees table:

Get trees taller than 6 meters:

filter(trees, HeiIf3 > 6)

## # A tibble: 100,247 x 10
##    Codi   Provincia Especie Rumbo  Dist      N    CD DiamIf3 DiamIf2 HeiIf3
##    <fct>  <chr>     <fct>   <dbl> <dbl>  <dbl> <dbl>   <dbl>   <dbl>  <dbl>
##  1 080001 08        022         7  8.3   31.8     20    20.3    18.9    9  
##  2 080002 08        476        38  9.1   31.8     35    34      32.4    9  
##  3 080003 08        021        25  7     31.8     25    24.8    17.6   11  
##  4 080004 08        021        28  8.89  31.8     15    16.8    12.6    9.5
##  5 080006 08        021        19 11.2   14.1     35    34.0    30.9   13  
##  6 080007 08        021        32 12     14.1     35    33.1    28.2   10  
##  7 080009 08        045        16  5.09  31.8     20    17.5    15.3    7  
##  8 080010 08        243        47 26.9    5.09    65    67.4    66.8   16.5
##  9 080013 08        022        44  2.7  127.      15    15.1    12.6    9.5
## 10 080014 08        021        13  8.89  31.8     20    19.2    14.2   11.5
## # ... with 100,237 more rows

Get trees in Tarragona (province 43):

filter(trees, Provincia == '43')

## # A tibble: 9,693 x 10
##    Codi   Provincia Especie Rumbo  Dist     N    CD DiamIf3 DiamIf2 HeiIf3
##    <fct>  <chr>     <fct>   <dbl> <dbl> <dbl> <dbl>   <dbl>   <dbl>  <dbl>
##  1 430003 43        024         6  9.69  31.8    30    28.1   20.4    10.5
##  2 430006 43        023        24  9.69  31.8    30    28.2   23.2    10.5
##  3 430007 43        024         0  8.8   31.8    30    30.4   27.8    10.5
##  4 430009 43        024        15  9.89  31.8    30    30.4   30.4    11  
##  5 430010 43        024        33 12.1   14.1    45    47.2   42.0    13.5
##  6 430011 43        044         1  2.09 127.     10    11.0    9.65    6  
##  7 430012 43        024        31 13     14.1    35    33.0   26.5    12.5
##  8 430013 43        024        80  1.89 127.     40    38.4   35.7    11  
##  9 430014 43        025         4  4.3  127.     15    14.0   11.2     5  
## 10 430015 43        024        22 11.2   14.1    30    31.2   27.4     9  
## # ... with 9,683 more rows

Get trees in diametric classes 45 and 70:

filter(trees, CD %in% c(45, 70))

## # A tibble: 2,552 x 10
##    Codi   Provincia Especie Rumbo  Dist     N    CD DiamIf3 DiamIf2 HeiIf3
##    <fct>  <chr>     <fct>   <dbl> <dbl> <dbl> <dbl>   <dbl>   <dbl>  <dbl>
##  1 080016 08        071         9 26.9   5.09    45    46.0    45     19  
##  2 080113 08        021        19 11.1  14.1     70    72.6    70.7   20.9
##  3 080686 08        042        43  7.09 31.8     45    44.3    42.5   12.5
##  4 080721 08        042        16 15.8   5.09    45    46.2    39.8   17.5
##  5 080743 08        042         3  9.69 31.8     45    46.1    40.7   25.5
##  6 081271 08        024        93 10.8  14.1     45    44.0    39.0   17.3
##  7 081278 08        024        87 10.1  14.1     45    44.6    38.9   15.1
##  8 081354 08        026        16  8.6  31.8     45    43.4    30.8   16.9
##  9 081402 08        054        51  5.19 31.8     70   102.     95.5   17.7
## 10 081943 08        024         1 10.3  14.1     45    43.2    33.8   11.7
## # ... with 2,542 more rows
…
Let’s see some examples:

Selecting a single column/variable:

select(trees, DiamIf3)

## # A tibble: 111,756 x 1
##    DiamIf3
##      <dbl>
##  1    20.3
##  2    34  
##  3    24.8
##  4    16.8
##  5    34.0
##  6    33.1
##  7    15  
##  8    17.5
##  9    67.4
## 10    15.1
## # ... with 111,746 more rows

Selecting all columns but the targeted one. The - operator excludes the targeted variable so that we only keep the remaining variables:

select(trees, -Codi)

## # A tibble: 111,756 x 9
##    Provincia Especie Rumbo  Dist      N    CD DiamIf3 DiamIf2 HeiIf3
##    <chr>     <fct>   <dbl> <dbl>  <dbl> <dbl>   <dbl>   <dbl>  <dbl>
##  1 08        022         7  8.3   31.8     20    20.3    18.9    9  
##  2 08        476        38  9.1   31.8     35    34      32.4    9  
##  3 08        021        25  7     31.8     25    24.8    17.6   11  
##  4 08        021        28  8.89  31.8     15    16.8    12.6    9.5
##  5 08        021        19 11.2   14.1     35    34.0    30.9   13  
##  6 08        021        32 12     14.1     35    33.1    28.2   10  
##  7 08        243        40  7.8   31.8     15    15      13.2    6  
##  8 08        045        16  5.09  31.8     20    17.5    15.3    7  
##  9 08        243        47 26.9    5.09    65    67.4    66.8   16.5
## 10 08        022        44  2.7  127.      15    15.1    12.6    9.5
## # ... with 111,746 more rows

To select several columns:

select(trees, DiamIf2, DiamIf3)

## # A tibble: 111,756 x 2
##    DiamIf2 DiamIf3
##      <dbl>   <dbl>
##  1    18.9    20.3
##  2    32.4    34  
##  3    17.6    24.8
##  4    12.6    16.8
##  5    30.9    34.0
##  6    28.2    33.1
##  7    13.2    15  
##  8    15.3    17.5
##  9    66.8    67.4
## 10    12.6    15.1
## # ... with 111,746 more rows

Selecting a range of columns. The : operator allows referencing a set of contiguous columns so that all variables contained in that range will be included:

select(trees, Codi:Dist)

## # A tibble: 111,756 x 5
##    Codi   Provincia Especie Rumbo  Dist
##    <fct>  <chr>     <fct>   <dbl> <dbl>
##  1 080001 08        022         7  8.3 
##  2 080002 08        476        38  9.1 
##  3 080003 08        021        25  7   
##  4 080004 08        021        28  8.89
##  5 080006 08        021        19 11.2 
##  6 080007 08        021        32 12   
##  7 080008 08        243        40  7.8 
##  8 080009 08        045        16  5.09
##  9 080010 08        243        47 26.9 
## 10 080013 08        022        44  2.7 
## # ... with 111,746 more rows

We can combine - and : to exclude a range of columns, though we must use a vector to specify the range using parenthesis:

select(trees,-(Codi:Dist))

## # A tibble: 111,756 x 5
##         N    CD DiamIf3 DiamIf2 HeiIf3
##     <dbl> <dbl>   <dbl>   <dbl>  <dbl>
##  1  31.8     20    20.3    18.9    9  
##  2  31.8     35    34      32.4    9  
##  3  31.8     25    24.8    17.6   11  
##  4  31.8     15    16.8    12.6    9.5
##  5  14.1     35    34.0    30.9   13  
##  6  14.1     35    33.1    28.2   10  
##  7  31.8     15    15      13.2    6  
##  8  31.8     20    17.5    15.3    7  
##  9   5.09    65    67.4    66.8   16.5
## 10 127.      15    15.1    12.6    9.5
## # ... with 111,746 more rows
…
contains(x): selects all variables whose name contains x.

matches(x): selects all variables whose name contains the regular expression x.

num_range("x", 1:5, width = 2): selects all variables (numerically) from x01 to x05

one_of ("x", "y", "z"): selects variables provided in a character vector.

We can check the list of special functions with help(select).

Select columns that start with the string Diam:

select(trees, starts_with('Diam'))

## # A tibble: 111,756 x 2
##    DiamIf3 DiamIf2
##      <dbl>   <dbl>
##  1    20.3    18.9
##  2    34      32.4
##  3    24.8    17.6
##  4    16.8    12.6
##  5    34.0    30.9
##  6    33.1    28.2
##  7    15      13.2
##  8    17.5    15.3
##  9    67.4    66.8
## 10    15.1    12.6
## # ... with 111,746 more rows
…
Sort trees ascending by height in the third forest inventory:

arrange(trees, HeiIf3)

## # A tibble: 111,756 x 10
##    Codi   Provincia Especie Rumbo  Dist     N    CD DiamIf3 DiamIf2 HeiIf3
##    <fct>  <chr>     <fct>   <dbl> <dbl> <dbl> <dbl>   <dbl>   <dbl>  <dbl>
##  1 171919 17        045        72  4.5  127.     10   10.2    10.4    1.5 
##  2 171806 17        046       138  4.5  127.     10   11.9     9.95   1.5 
##  3 171049 17        045       331  3.29 127.     10    7.65    7.65   1.5 
##  4 080073 08        071       269  3.9  127.     10   10.4     9.2    1.6 
##  5 082415 08        045         9  4.69 127.     10    9.7     9.7    1.79
##  6 082451 08        044        33  1    127.     10    7.9     8.1    2   
##  7 171959 17        068        17  3.29 127.     10    9.95    8.4    2   
##  8 250494 25        042        29  3.09 127.     10    8.45    8.45   2   
##  9 251649 25        022         5  5.5   31.8    15   14      14      2   
## 10 080664 08        042        49  4.19 127.     10    8.45    8.3    2   
## # ... with 111,746 more rows

Sort them descending:

arrange(trees, desc(Dist))

## # A tibble: 111,756 x 10
##    Codi   Provincia Especie Rumbo  Dist     N    CD DiamIf3 DiamIf2 HeiIf3
##    <fct>  <chr>     <fct>   <dbl> <dbl> <dbl> <dbl>   <dbl>   <dbl>  <dbl>
##  1 250008 25        042       398  36.5  5.09    70    74.8    72.3   11.1
##  2 250025 25        031       350  34.8  5.09    70    75.1    71.3   35.7
##  3 250135 25        022       158  33.9  5.09    50    51.8    54.0    9  
##  4 250051 25        021       110  33.6  5.09    60    58.2    56.8    6.5
##  5 250025 25        031       238  33.5  5.09    50    51      45.5   20.3
##  6 250010 25        071       214  32.9  5.09    70    85.3    71.6   21  
##  7 251788 25        045       163  32.8  5.09    60    61.6    51.7   10.5
##  8 250039 25        031       119  32.5  5.09    65    63.5    62.6   30  
##  9 250025 25        031       390  32.1  5.09    45    45.6    43.8   24.6
## 10 171289 17        071        38  31.4  5.09    60    60.8    50.4   26.9
## # ... with 111,746 more rows
…
The basic syntax of mutate allows to especify the name of variable (variable_name = data_operation) and then the operation by which we assign information to it.

If the name of the variable already exists, then that variable is replaced and updated with the new values. Otherwise, we will create a new variable. Nonetheless, it would be actually replaced unless we use <- to store the result into an object. If we want toc hange the name of a variable without changing its values, we can use the verb rename, also available in dplyr.

Let’s see some examples:

Replace Dist with its old value times 100:

mutate(
  trees,
  Dist = Dist * 100
)

## # A tibble: 111,756 x 10
##    Codi   Provincia Especie Rumbo  Dist      N    CD DiamIf3 DiamIf2 HeiIf3
##    <fct>  <chr>     <fct>   <dbl> <dbl>  <dbl> <dbl>   <dbl>   <dbl>  <dbl>
##  1 080001 08        022         7  830.  31.8     20    20.3    18.9    9  
##  2 080002 08        476        38  910   31.8     35    34      32.4    9  
##  3 080003 08        021        25  700   31.8     25    24.8    17.6   11  
##  4 080004 08        021        28  889   31.8     15    16.8    12.6    9.5
##  5 080006 08        021        19 1119   14.1     35    34.0    30.9   13  
##  6 080007 08        021        32 1200   14.1     35    33.1    28.2   10  
##  7 080008 08        243        40  780   31.8     15    15      13.2    6  
##  8 080009 08        045        16  509   31.8     20    17.5    15.3    7  
##  9 080010 08        243        47 2689    5.09    65    67.4    66.8   16.5
## 10 080013 08        022        44  270  127.      15    15.1    12.6    9.5
## # ... with 111,746 more rows

Note that several operations can be conducted at once just by separating many operations using ,:

mutate(trees,
       Allometry = DiamIf3 / HeiIf3,
       Allometry2 = Allometry * DiamIf2
)

## # A tibble: 111,756 x 12
##    Codi  Provincia Especie Rumbo  Dist      N    CD DiamIf3 DiamIf2 HeiIf3
##    <fct> <chr>     <fct>   <dbl> <dbl>  <dbl> <dbl>   <dbl>   <dbl>  <dbl>
##  1 0800~ 08        022         7  8.3   31.8     20    20.3    18.9    9  
##  2 0800~ 08        476        38  9.1   31.8     35    34      32.4    9  
##  3 0800~ 08        021        25  7     31.8     25    24.8    17.6   11  
##  4 0800~ 08        021        28  8.89  31.8     15    16.8    12.6    9.5
##  5 0800~ 08        021        19 11.2   14.1     35    34.0    30.9   13  
##  6 0800~ 08        021        32 12     14.1     35    33.1    28.2   10  
##  7 0800~ 08        243        40  7.8   31.8     15    15      13.2    6  
##  8 0800~ 08        045        16  5.09  31.8     20    17.5    15.3    7  
##  9 0800~ 08        243        47 26.9    5.09    65    67.4    66.8   16.5
## 10 0800~ 08        022        44  2.7  127.      15    15.1    12.6    9.5
## # ... with 111,746 more rows, and 2 more variables: Allometry <dbl>,
## #   Allometry2 <dbl>
…
You can see, by typing for example glimpse(by_plot) that the resulting data frame does not differ at all from the original, apparently, but has a hidden index that identifies to which class belongs each observation. Moreover, it has now the class grouped_df, that indicates this is a grouped table.

Now we can apply summarise to get an aggregation value per group category. In this case we will calculate the mean and maximum height per tree species:

summarise(
  by_species,
  mean_height_ifn3 = mean(HeiIf3, na.rm = TRUE),
  max_height_ifn3 = max(HeiIf3, na.rm = TRUE)
  )

## `summarise()` ungrouping output (override with `.groups` argument)

## # A tibble: 91 x 3
##    Especie mean_height_ifn3 max_height_ifn3
##    <fct>              <dbl>           <dbl>
##  1 004                 5.4              5.8
##  2 008                 6.27            10  
##  3 012                 6.78            10  
##  4 013                 9.61            17.2
##  5 014                 7.45             8  
##  6 015                 7                9  
##  7 016                 7.72            12  
##  8 017                19.8             28  
##  9 019                 7.13            17.3
## 10 021                12.6             28.5
## # ... with 81 more rows
…
