Lab 3.1 - Data import and export: reading and writing different file types
…
Another interesting option is to define the value that is used in the file to represent missing values (this are the NA values in R). For instance, if we have a look at the file tree_map, we will see that some of the columns have been misclassified as character, because R does not recognize the values used to define missing data: --

tree_map

## # A tibble: 2,959 x 10
##    Species Type    `Dead Code`     X     Y Diam10  Height dead    DBH SnagDecayClass
##    <chr>   <chr>   <chr>       <dbl> <dbl> <chr>    <dbl> <chr> <dbl> <chr>         
##  1 PISY    Sapling Alive        7.06 3.91  4.42113   3.02 0      2.34 --            
##  2 PISY    Sapling Alive        6.11 6.36  5.07071   3.26 0      2.70 --            
##  3 PISY    Sapling Alive        5.19 3.97  6.48441   3.77 0      3.47 --            
##  4 PISY    Sapling Alive        3.21 4.53  9.71057   4.86 0      5.24 --            
##  5 PISY    Sapling Alive        6.47 0.963 11.0175   5.28 0      5.95 --            
##  6 PISY    Adult   Alive        5.27 6.73  --        6.18 0      7.56 0             
##  7 PISY    Adult   Alive        5.76 1.43  --        6.22 0      7.64 0             
##  8 PISY    Adult   Alive        6.00 3.47  --        6.27 0      7.73 0             
##  9 PISY    Adult   Alive        4.85 3.92  --        6.58 0      8.32 0             
## 10 PISY    Adult   Alive        5.27 7.90  --        6.74 0      8.63 0             
## # ... with 2,949 more rows
…
tree_map

## # A tibble: 2,959 x 10
##    Species Type    `Dead Code`     X     Y Diam10 Height  dead   DBH SnagDecayClass
##    <chr>   <chr>   <chr>       <dbl> <dbl>  <dbl>  <dbl> <dbl> <dbl>          <dbl>
##  1 PISY    Sapling Alive        7.06 3.91    4.42   3.02     0  2.34             NA
##  2 PISY    Sapling Alive        6.11 6.36    5.07   3.26     0  2.70             NA
##  3 PISY    Sapling Alive        5.19 3.97    6.48   3.77     0  3.47             NA
##  4 PISY    Sapling Alive        3.21 4.53    9.71   4.86     0  5.24             NA
##  5 PISY    Sapling Alive        6.47 0.963  11.0    5.28     0  5.95             NA
##  6 PISY    Adult   Alive        5.27 6.73   NA      6.18     0  7.56              0
##  7 PISY    Adult   Alive        5.76 1.43   NA      6.22     0  7.64              0
##  8 PISY    Adult   Alive        6.00 3.47   NA      6.27     0  7.73              0
##  9 PISY    Adult   Alive        4.85 3.92   NA      6.58     0  8.32              0
## 10 PISY    Adult   Alive        5.27 7.90   NA      6.74     0  8.63              0
## # ... with 2,949 more rows

3.2 Parsing columns

readr uses a heuristic to figure out the type of each column: it reads the first 1000 rows and tries to guess the type of each column. Sometimes readr will not succeed in interpreting the type of variables we are trying to read, and it may, for example, identify as a character vector what should be a numeric one. We can tell R to force the type of variable for a given column (this is called parsing) using the col_*() family of functions within the col_types argument. For example, in the tree_map file we are reading, we know that dead is a logical variable (a tree can either be dead or alive), whereas SnagDecayClass indicates the decay class of a dead tree, and can get the value from 1 to 5.

tree_map <- read_tsv("data/tree_map.txt", skip = 1, 
                     na = "--",
                     col_types = cols(dead = col_logical(),
                                      SnagDecayClass = col_factor()))
      
tree_map               

## # A tibble: 2,959 x 10
##    Species Type    `Dead Code`     X     Y Diam10 Height dead    DBH SnagDecayClass
##    <chr>   <chr>   <chr>       <dbl> <dbl>  <dbl>  <dbl> <lgl> <dbl> <fct>         
##  1 PISY    Sapling Alive        7.06 3.91    4.42   3.02 FALSE  2.34 <NA>          
##  2 PISY    Sapling Alive        6.11 6.36    5.07   3.26 FALSE  2.70 <NA>          
##  3 PISY    Sapling Alive        5.19 3.97    6.48   3.77 FALSE  3.47 <NA>          
##  4 PISY    Sapling Alive        3.21 4.53    9.71   4.86 FALSE  5.24 <NA>          
##  5 PISY    Sapling Alive        6.47 0.963  11.0    5.28 FALSE  5.95 <NA>          
##  6 PISY    Adult   Alive        5.27 6.73   NA      6.18 FALSE  7.56 0             
##  7 PISY    Adult   Alive        5.76 1.43   NA      6.22 FALSE  7.64 0             
##  8 PISY    Adult   Alive        6.00 3.47   NA      6.27 FALSE  7.73 0             
##  9 PISY    Adult   Alive        4.85 3.92   NA      6.58 FALSE  8.32 0             
## 10 PISY    Adult   Alive        5.27 7.90   NA      6.74 FALSE  8.63 0             
## # ... with 2,949 more rows
…
tree_map

## # A tibble: 2,959 x 10
##    Species Type   `Dead Code` X      Y      Diam10 Height  dead    DBH SnagDecayClass
##    <chr>   <chr>  <chr>       <chr>  <chr>   <dbl>  <dbl> <dbl>  <dbl>          <dbl>
##  1 PISY    Sapli~ Alive       7,0589 3,908~ 442113 302203     0 234336             NA
##  2 PISY    Sapli~ Alive       6,1085 6,357~ 507071 326081     0 269868             NA
##  3 PISY    Sapli~ Alive       5,187~ 3,966~ 648441 376772     0 347197             NA
##  4 PISY    Sapli~ Alive       3,211~ 4,534~ 971057 486177     0 523668             NA
##  5 PISY    Sapli~ Alive       6,474~ 0,962~ 110175 528131     0 595158             NA
##  6 PISY    Adult  Alive       5,2699 6,729~     NA 617645     0 755667              0
##  7 PISY    Adult  Alive       5,760~ 1,428~     NA 622026     0 763823              0
##  8 PISY    Adult  Alive       5,995~ 3,471~     NA  62671     0 772575              0
##  9 PISY    Adult  Alive       4,847~ 3,922~     NA 658238     0 832378              0
## 10 PISY    Adult  Alive       5,266~ 7,895~     NA 674164     0 863198              0
## # ... with 2,949 more rows
…
tree_map

## # A tibble: 2,959 x 10
##    Species Type    `Dead Code`     X     Y Diam10 Height  dead   DBH SnagDecayClass
##    <chr>   <chr>   <chr>       <dbl> <dbl>  <dbl>  <dbl> <dbl> <dbl>          <dbl>
##  1 PISY    Sapling Alive        7.06 3.91    4.42   3.02     0  2.34             NA
##  2 PISY    Sapling Alive        6.11 6.36    5.07   3.26     0  2.70             NA
##  3 PISY    Sapling Alive        5.19 3.97    6.48   3.77     0  3.47             NA
##  4 PISY    Sapling Alive        3.21 4.53    9.71   4.86     0  5.24             NA
##  5 PISY    Sapling Alive        6.47 0.963  11.0    5.28     0  5.95             NA
##  6 PISY    Adult   Alive        5.27 6.73   NA      6.18     0  7.56              0
##  7 PISY    Adult   Alive        5.76 1.43   NA      6.22     0  7.64              0
##  8 PISY    Adult   Alive        6.00 3.47   NA      6.27     0  7.73              0
##  9 PISY    Adult   Alive        4.85 3.92   NA      6.58     0  8.32              0
## 10 PISY    Adult   Alive        5.27 7.90   NA      6.74     0  8.63              0
## # ... with 2,949 more rows
…
read_excel("data/365_papers.xlsx", sheet = 3)

## # A tibble: 79 x 9
##        N  Year Journal Title N_authors Institution Country Gender Date_read          
##    <dbl> <dbl> <chr>   <chr>     <dbl> <chr>       <chr>   <chr>  <dttm>             
##  1     1  2003 Canadi~ Unde~         3 University~ Canada  Female 2016-01-06 00:00:00
##  2     2  2012 Ecolog~ Clim~         4 University~ US      Female 2016-01-07 00:00:00
##  3     3  2012 Enviro~ Mana~         3 University~ US      Female 2016-01-07 00:00:00
##  4     4  2010 Ecolog~ Inst~         3 University~ US      Female 2016-01-08 00:00:00
##  5     5  2013 Journa~ Natu~         4 University~ Canada  Male   2016-01-08 00:00:00
##  6     6  2014 Journa~ Perc~         2 University~ US      Female 2016-01-11 00:00:00
##  7     7  2011 Journa~ Rela~         2 Davidson C~ US      Male   2016-01-14 00:00:00
##  8     8  2003 Annals~ Indi~         4 CTFC        Spain   Male   2016-01-20 00:00:00
##  9     9  2001 Forest~ Anal~         3 INIA        Spain   Female 2016-01-24 00:00:00
## 10    10  2015 Agricu~ Coup~         8 CTFC        Spain   Male   2016-02-10 00:00:00
## # ... with 69 more rows
…
## Using an auto-discovered, cached token.
## To suppress this message, modify your code or options to clearly consent to the use of a cached token.
## See gargle's "Non-interactive auth" vignette for more details:
## https://gargle.r-lib.org/articles/non-interactive-auth.html

## The googlesheets4 package is using a cached token for ameztegui@gmail.com.

## Reading from "gapminder"

## Range "Africa"

gapminder

## # A tibble: 624 x 6
##    country continent  year lifeExp      pop gdpPercap
##    <chr>   <chr>     <dbl>   <dbl>    <dbl>     <dbl>
##  1 Algeria Africa     1952    43.1  9279525     2449.
##  2 Algeria Africa     1957    45.7 10270856     3014.
##  3 Algeria Africa     1962    48.3 11000948     2551.
##  4 Algeria Africa     1967    51.4 12760499     3247.
##  5 Algeria Africa     1972    54.5 14760787     4183.
##  6 Algeria Africa     1977    58.0 17152804     4910.
##  7 Algeria Africa     1982    61.4 20033753     5745.
##  8 Algeria Africa     1987    65.8 23254956     5681.
##  9 Algeria Africa     1992    67.7 26298373     5023.
## 10 Algeria Africa     1997    69.2 29072015     4797.
## # ... with 614 more rows
…
