Lab 3.3 - Relational data: Working with several data tables
…
A variable can be both a primary key and a foreign key, as we have seen with Code. Once youve identified the primary keys in your tables, its good practice to verify that they do indeed uniquely identify each observation. One way to do that is to count() the primary keys and look for entries where n is greater than one:

plots %>% 
  count(Code) %>% 
  filter(n > 1)

## # A tibble: 0 x 2
## # ... with 2 variables: Code <fct>, n <int>

trees %>% 
  count(Code) %>% 
  filter(n > 1)

## # A tibble: 7,389 x 2
##    Code       n
##    <fct>  <int>
##  1 080001    15
##  2 080002    13
##  3 080003     7
##  4 080004     2
##  5 080005    12
##  6 080006    23
##  7 080007    35
##  8 080008    11
##  9 080009    16
## 10 080010    13
## # ... with 7,379 more rows
…
inner_join(plots, coordinates, by = "Code")

## # A tibble: 11,766 x 21
##    Code   Province.x Class.x Subclass FccTot FccArb IniDate   
##    <fct>  <fct>      <fct>   <fct>     <int>  <int> <date>    
##  1 080001 08         A       1            80     70 2001-07-09
##  2 080002 08         A       1            80     70 2001-08-06
##  3 080003 08         A       1            90     80 2001-08-06
##  4 080004 08         A       1            90     50 2001-07-09
##  5 080005 08         A       1            70     60 2001-08-03
##  6 080006 08         A       1            90     90 2001-08-01
##  7 080007 08         A       1            90     90 2001-08-07
##  8 080008 08         A       1            70     60 2001-08-03
##  9 080009 08         A       1            80     70 2001-08-02
## 10 080010 08         A       1            80     80 2001-06-14
## # ... with 11,756 more rows, and 14 more variables: IniTime <dttm>,
## #   FinDate <date>, FinTime <dttm>, Rocks <int>, Texture <int>, OrgMat <int>,
## #   SoilPh <int>, PhDate <date>, Dom_sp_IFN2 <fct>, Dom_sp_IFN3 <fct>,
## #   Province.y <fct>, Class.y <fct>, CoorX <int>, CoorY <int>
…
left_join(plots, coordinates, by = "Code")

## # A tibble: 11,858 x 21
##    Code   Province.x Class.x Subclass FccTot FccArb IniDate   
##    <fct>  <fct>      <fct>   <fct>     <int>  <int> <date>    
##  1 080001 08         A       1            80     70 2001-07-09
##  2 080002 08         A       1            80     70 2001-08-06
##  3 080003 08         A       1            90     80 2001-08-06
##  4 080004 08         A       1            90     50 2001-07-09
##  5 080005 08         A       1            70     60 2001-08-03
##  6 080006 08         A       1            90     90 2001-08-01
##  7 080007 08         A       1            90     90 2001-08-07
##  8 080008 08         A       1            70     60 2001-08-03
##  9 080009 08         A       1            80     70 2001-08-02
## 10 080010 08         A       1            80     80 2001-06-14
## # ... with 11,848 more rows, and 14 more variables: IniTime <dttm>,
## #   FinDate <date>, FinTime <dttm>, Rocks <int>, Texture <int>, OrgMat <int>,
## #   SoilPh <int>, PhDate <date>, Dom_sp_IFN2 <fct>, Dom_sp_IFN3 <fct>,
## #   Province.y <fct>, Class.y <fct>, CoorX <int>, CoorY <int>

We see that in this case we didnt loose any observation from plots, but some of the plots will have NA as coordinates, as we can see with this chunk of code:

left_join(plots, coordinates, by = "Code") %>%
    filter(is.na(CoorX))

## # A tibble: 92 x 21
##    Code   Province.x Class.x Subclass FccTot FccArb IniDate   
##    <fct>  <fct>      <fct>   <fct>     <int>  <int> <date>    
##  1 080232 08         A       1            95     70 2001-02-14
##  2 080281 08         A       1            80     75 2001-04-25
##  3 080531 08         A       1            90     50 2001-02-14
##  4 080866 08         A       1           100     65 2000-08-28
##  5 080956 08         A       1           100     90 2000-10-24
##  6 081122 08         A       1           100     60 2000-12-01
##  7 081411 08         A       1            70     60 2001-04-18
##  8 081519 08         A       1           100     60 2000-11-30
##  9 081784 08         A       1            90     55 2000-08-10
## 10 081793 08         A       1            50     30 2000-11-14
## # ... with 82 more rows, and 14 more variables: IniTime <dttm>, FinDate <date>,
## #   FinTime <dttm>, Rocks <int>, Texture <int>, OrgMat <int>, SoilPh <int>,
## #   PhDate <date>, Dom_sp_IFN2 <fct>, Dom_sp_IFN3 <fct>, Province.y <fct>,
## #   Class.y <fct>, CoorX <int>, CoorY <int>
…
right_join(plots, coordinates, by = "Code")

## # A tibble: 11,766 x 21
##    Code   Province.x Class.x Subclass FccTot FccArb IniDate   
##    <fct>  <fct>      <fct>   <fct>     <int>  <int> <date>    
##  1 080001 08         A       1            80     70 2001-07-09
##  2 080002 08         A       1            80     70 2001-08-06
##  3 080003 08         A       1            90     80 2001-08-06
##  4 080004 08         A       1            90     50 2001-07-09
##  5 080005 08         A       1            70     60 2001-08-03
##  6 080006 08         A       1            90     90 2001-08-01
##  7 080007 08         A       1            90     90 2001-08-07
##  8 080008 08         A       1            70     60 2001-08-03
##  9 080009 08         A       1            80     70 2001-08-02
## 10 080010 08         A       1            80     80 2001-06-14
## # ... with 11,756 more rows, and 14 more variables: IniTime <dttm>,
## #   FinDate <date>, FinTime <dttm>, Rocks <int>, Texture <int>, OrgMat <int>,
## #   SoilPh <int>, PhDate <date>, Dom_sp_IFN2 <fct>, Dom_sp_IFN3 <fct>,
## #   Province.y <fct>, Class.y <fct>, CoorX <int>, CoorY <int>

In this case we have 11,766 observations, one per value in coordinates, but it didnt include those plots with missing coordinates.

Note that doing left_join(x,y) is equivalent to doing right_join(y,x), although the order of the variables will differ:

right_join(coordinates, plots, by = "Code")

## # A tibble: 11,858 x 21
##    Code   Province.x Class.x  CoorX   CoorY Province.y Class.y Subclass FccTot
##    <fct>  <fct>      <fct>    <int>   <int> <fct>      <fct>   <fct>     <int>
##  1 080001 08         A       402000 4684000 08         A       1            80
##  2 080002 08         A       400000 4683000 08         A       1            80
##  3 080003 08         A       401000 4683000 08         A       1            90
##  4 080004 08         A       402000 4683000 08         A       1            90
##  5 080005 08         A       400000 4682000 08         A       1            70
##  6 080006 08         A       397000 4681000 08         A       1            90
##  7 080007 08         A       399000 4681000 08         A       1            90
##  8 080008 08         A       401000 4681000 08         A       1            70
##  9 080009 08         A       402000 4681000 08         A       1            80
## 10 080010 08         A       394000 4680000 08         A       1            80
## # ... with 11,848 more rows, and 12 more variables: FccArb <int>,
## #   IniDate <date>, IniTime <dttm>, FinDate <date>, FinTime <dttm>,
## #   Rocks <int>, Texture <int>, OrgMat <int>, SoilPh <int>, PhDate <date>,
## #   Dom_sp_IFN2 <fct>, Dom_sp_IFN3 <fct>
…
full_join(plots, coordinates, by = "Code")

## # A tibble: 11,858 x 21
##    Code   Province.x Class.x Subclass FccTot FccArb IniDate   
##    <fct>  <fct>      <fct>   <fct>     <int>  <int> <date>    
##  1 080001 08         A       1            80     70 2001-07-09
##  2 080002 08         A       1            80     70 2001-08-06
##  3 080003 08         A       1            90     80 2001-08-06
##  4 080004 08         A       1            90     50 2001-07-09
##  5 080005 08         A       1            70     60 2001-08-03
##  6 080006 08         A       1            90     90 2001-08-01
##  7 080007 08         A       1            90     90 2001-08-07
##  8 080008 08         A       1            70     60 2001-08-03
##  9 080009 08         A       1            80     70 2001-08-02
## 10 080010 08         A       1            80     80 2001-06-14
## # ... with 11,848 more rows, and 14 more variables: IniTime <dttm>,
## #   FinDate <date>, FinTime <dttm>, Rocks <int>, Texture <int>, OrgMat <int>,
## #   SoilPh <int>, PhDate <date>, Dom_sp_IFN2 <fct>, Dom_sp_IFN3 <fct>,
## #   Province.y <fct>, Class.y <fct>, CoorX <int>, CoorY <int>
…
Defining the key columns

We have seen that we can specify the keys with the option by, which can include a single key (by = "Code", or a vector (by = c("Code", "Province")). However, if we do not specify the key, it will use all variables that appear in both tables. For example, if we join plots with coordinatesit will use Code, Province, and Class as keys.

left_join(plots, coordinates)

## Joining, by = c("Code", "Province", "Class")

## # A tibble: 11,858 x 19
##    Code   Province Class Subclass FccTot FccArb IniDate    IniTime            
##    <fct>  <fct>    <fct> <fct>     <int>  <int> <date>     <dttm>             
##  1 080001 08       A     1            80     70 2001-07-09 2001-07-09 09:44:00
##  2 080002 08       A     1            80     70 2001-08-06 2001-08-06 09:18:58
##  3 080003 08       A     1            90     80 2001-08-06 2001-08-06 12:08:09
##  4 080004 08       A     1            90     50 2001-07-09 2001-07-09 13:23:23
##  5 080005 08       A     1            70     60 2001-08-03 2001-08-03 09:11:28
##  6 080006 08       A     1            90     90 2001-08-01 2001-08-01 13:00:33
##  7 080007 08       A     1            90     90 2001-08-07 2001-08-07 10:08:15
##  8 080008 08       A     1            70     60 2001-08-03 2001-08-03 12:12:03
##  9 080009 08       A     1            80     70 2001-08-02 2001-08-02 09:00:16
## 10 080010 08       A     1            80     80 2001-06-14 2001-06-14 12:34:21
## # ... with 11,848 more rows, and 11 more variables: FinDate <date>,
## #   FinTime <dttm>, Rocks <int>, Texture <int>, OrgMat <int>, SoilPh <int>,
## #   PhDate <date>, Dom_sp_IFN2 <fct>, Dom_sp_IFN3 <fct>, CoorX <int>,
## #   CoorY <int>

Another possibility is that both tables do not actually have any variable with the same name, even though they represent the same true variable (otherwise we could not perform a join). For example, if we try to assign to each tree the name of its species:

left_join(trees, sps_codes)

## Error: `by` must be supplied when `x` and `y` have no common variables.
## i use by = character()` to perform a cross-join.

R throws an error message stating that both tables have no common variables. We can fix these specifying the names of the keys in both tables:

left_join(trees, sps_codes, by = c("Species" = "CodeIFN3"))

## # A tibble: 111,756 x 13
##    Code   Province Species Direction  Dist      N DC    DBH_3 DBH_2 Height_3
##    <fct>  <fct>    <fct>       <dbl> <dbl>  <dbl> <fct> <dbl> <dbl>    <dbl>
##  1 080001 08       022             7  8.3   31.8  20     20.3  18.9      9  
##  2 080002 08       476            38  9.1   31.8  35     34    32.4      9  
##  3 080003 08       021            25  7     31.8  25     24.8  17.6     11  
##  4 080004 08       021            28  8.89  31.8  15     16.8  12.6      9.5
##  5 080006 08       021            19 11.2   14.1  35     34.0  30.9     13  
##  6 080007 08       021            32 12     14.1  35     33.1  28.2     10  
##  7 080008 08       243            40  7.8   31.8  15     15    13.2      6  
##  8 080009 08       045            16  5.09  31.8  20     17.5  15.3      7  
##  9 080010 08       243            47 26.9    5.09 65     67.4  66.8     16.5
## 10 080013 08       022            44  2.7  127.   15     15.1  12.6      9.5
## # ... with 111,746 more rows, and 3 more variables: Name <chr>,
## #   Common_Name <chr>, CodeIFN2 <fct>
…
semi_join(plots, coordinates, by = "Code")

## # A tibble: 11,766 x 17
##    Code   Province Class Subclass FccTot FccArb IniDate    IniTime            
##    <fct>  <fct>    <fct> <fct>     <int>  <int> <date>     <dttm>             
##  1 080001 08       A     1            80     70 2001-07-09 2001-07-09 09:44:00
##  2 080002 08       A     1            80     70 2001-08-06 2001-08-06 09:18:58
##  3 080003 08       A     1            90     80 2001-08-06 2001-08-06 12:08:09
##  4 080004 08       A     1            90     50 2001-07-09 2001-07-09 13:23:23
##  5 080005 08       A     1            70     60 2001-08-03 2001-08-03 09:11:28
##  6 080006 08       A     1            90     90 2001-08-01 2001-08-01 13:00:33
##  7 080007 08       A     1            90     90 2001-08-07 2001-08-07 10:08:15
##  8 080008 08       A     1            70     60 2001-08-03 2001-08-03 12:12:03
##  9 080009 08       A     1            80     70 2001-08-02 2001-08-02 09:00:16
## 10 080010 08       A     1            80     80 2001-06-14 2001-06-14 12:34:21
## # ... with 11,756 more rows, and 9 more variables: FinDate <date>,
## #   FinTime <dttm>, Rocks <int>, Texture <int>, OrgMat <int>, SoilPh <int>,
## #   PhDate <date>, Dom_sp_IFN2 <fct>, Dom_sp_IFN3 <fct>
…
For example:

anti_join(plots, coordinates, by = "Code")

## # A tibble: 92 x 17
##    Code   Province Class Subclass FccTot FccArb IniDate    IniTime            
##    <fct>  <fct>    <fct> <fct>     <int>  <int> <date>     <dttm>             
##  1 080232 08       A     1            95     70 2001-02-14 2001-02-14 09:34:12
##  2 080281 08       A     1            80     75 2001-04-25 2001-04-25 09:59:06
##  3 080531 08       A     1            90     50 2001-02-14 2001-02-14 13:26:40
##  4 080866 08       A     1           100     65 2000-08-28 2000-08-28 11:13:11
##  5 080956 08       A     1           100     90 2000-10-24 2000-10-24 10:25:01
##  6 081122 08       A     1           100     60 2000-12-01 2000-12-01 09:49:35
##  7 081411 08       A     1            70     60 2001-04-18 2001-04-18 10:00:40
##  8 081519 08       A     1           100     60 2000-11-30 2000-11-30 10:30:34
##  9 081784 08       A     1            90     55 2000-08-10 2000-08-10 09:59:31
## 10 081793 08       A     1            50     30 2000-11-14 2000-11-14 14:32:57
## # ... with 82 more rows, and 9 more variables: FinDate <date>, FinTime <dttm>,
## #   Rocks <int>, Texture <int>, OrgMat <int>, SoilPh <int>, PhDate <date>,
## #   Dom_sp_IFN2 <fct>, Dom_sp_IFN3 <fct>
…
