Data transformation (I)
…
  4. `coordinates [11858 x 6]`: X and Y UTM coordinates of each plot.  

  5. `leaf [10447 x 3]`: leaf biomass and carbon content for those IFN 3 plots where they
    were available  

---

# let's have a look at the data

```r
trees
```

```
## # A tibble: 111,756 x 10
##    Codi   Provincia Especie Rumbo  Dist      N    CD DiamIf3 DiamIf2 HeiIf3
##    <fct>  <chr>     <fct>   <dbl> <dbl>  <dbl> <dbl>   <dbl>   <dbl>  <dbl>
##  1 080001 08        022         7  8.3   31.8     20    20.3    18.9    9  
##  2 080002 08        476        38  9.1   31.8     35    34      32.4    9  
##  3 080003 08        021        25  7     31.8     25    24.8    17.6   11  
##  4 080004 08        021        28  8.89  31.8     15    16.8    12.6    9.5
##  5 080006 08        021        19 11.2   14.1     35    34.0    30.9   13  
##  6 080007 08        021        32 12     14.1     35    33.1    28.2   10  
##  7 080008 08        243        40  7.8   31.8     15    15      13.2    6  
##  8 080009 08        045        16  5.09  31.8     20    17.5    15.3    7  
##  9 080010 08        243        47 26.9    5.09    65    67.4    66.8   16.5
## 10 080013 08        022        44  2.7  127.      15    15.1    12.6    9.5
## # ... with 111,746 more rows
```

---

# let's have a look at the data

```r
plots
```

```
## # A tibble: 11,858 x 17
##    Codi   Provincia Cla   Subclase FccTot FccArb FechaIni   HoraIni            
##    <fct>  <fct>     <fct> <fct>     <int>  <int> <date>     <dttm>             
##  1 080001 08        A     1            80     70 2001-07-09 2017-11-26 09:44:00
##  2 080002 08        A     1            80     70 2001-08-06 2017-11-26 09:18:58
##  3 080003 08        A     1            90     80 2001-08-06 2017-11-26 12:08:09
##  4 080004 08        A     1            90     50 2001-07-09 2017-11-26 13:23:23
##  5 080005 08        A     1            70     60 2001-08-03 2017-11-26 09:11:28
##  6 080006 08        A     1            90     90 2001-08-01 2017-11-26 13:00:33
##  7 080007 08        A     1            90     90 2001-08-07 2017-11-26 10:08:15
##  8 080008 08        A     1            70     60 2001-08-03 2017-11-26 12:12:03
##  9 080009 08        A     1            80     70 2001-08-02 2017-11-26 09:00:16
## 10 080010 08        A     1            80     80 2001-06-14 2017-11-26 12:34:21
## # ... with 11,848 more rows, and 9 more variables: FechaFin <date>, HoraFin <dttm>,
## #   Rocosid <int>, Textura <int>, MatOrg <int>, PhSuelo <int>, FechaPh <date>,
## #   Dom_sp2 <fct>, Dom_sp3 <fct>
```

---

# let's have a look at the data

```r
ungroup(species)
```

```
## # A tibble: 14,778 x 15
##    Codi   Especie CD_10 CD_15 CD_20 CD_25 CD_30 CD_35 CD_40 CD_45 CD_50 CD_55 CD_60
##    <fct>  <fct>   <dbl> <dbl> <dbl> <dbl> <dbl> <dbl> <dbl> <dbl> <dbl> <dbl> <dbl>
##  1 080001 022         0 159.   31.8 111.  60.1   19.2  5.09   0    0        0   0  
##  2 080002 021         0   0     0     0    0     74.2 28.3   63.7  0        0   0  
##  3 080002 022         0   0     0   173.  31.8    0    0      0    0        0   0  
##  4 080002 476         0   0     0     0    0     31.8  0      0    0        0   0  
##  5 080003 021         0   0     0    31.8  0      0    0      0    5.09     0   0  
##  6 080003 022         0 127.    0     0   46.0  127.   0     14.1  0        0   0  
##  7 080004 021         0  31.8   0     0   31.8    0    0      0    0        0   0  
##  8 080005 071         0   0     0    14.1  5.09  31.8  0      0    0        0  31.8
##  9 080005 243         0   0    14.1   0   14.1    0    5.09   0    0        0   0  
## 10 080005 278         0 286.   31.8   0    0     31.8  0      0    0        0   0  
## # ... with 14,768 more rows, and 2 more variables: CD_65 <dbl>, CD_70 <dbl>
```
…
- first argument: data (as data.frame or tbl_df)
- the rest of arguments specify what to do with the data frame
- output is always another data frame (tbl_df or data.frame)
- unless we are assigning (`<-`), never modifies the original data frame

---

# Selecting rows (`filter`)

```r
filter(trees, Dist < 3)
```

```
## # A tibble: 11,601 x 10
##    Codi   Provincia Especie Rumbo  Dist     N    CD DiamIf3 DiamIf2 HeiIf3
##    <fct>  <chr>     <fct>   <dbl> <dbl> <dbl> <dbl>   <dbl>   <dbl>  <dbl>
##  1 080013 08        022        44  2.7   127.    15    15.1    12.6   9.5 
##  2 080015 08        021         9  1     127.    30    28.1    25.1  15.2 
##  3 080027 08        021         2  0.6   127.    25    25.5    23.1  10   
##  4 080034 08        021        17  2.59  127.    15    13.4     9.4   6.09
##  5 080051 08        022         5  2.29  127.    20    18.4    13.2   8.5 
##  6 080065 08        022        10  2.09  127.    15    15.6    14.5  12   
##  7 080118 08        476         3  2.29  127.    10    12.2     8.9  10.4 
##  8 080188 08        243        24  2.7   127.    10    12.2    10.8   6.4 
##  9 080197 08        243       103  2.79  127.    10    10.7     8.2   6.59
## 10 080198 08        021         2  2     127.    25    26.5    25.1  11.2 
## # ... with 11,591 more rows
```

---

# Selecting rows (`filter`)

```r
filter(trees, Provincia == '25')
```

```
## # A tibble: 35,665 x 10
##    Codi   Provincia Especie Rumbo  Dist      N    CD DiamIf3 DiamIf2 HeiIf3
##    <fct>  <chr>     <fct>   <dbl> <dbl>  <dbl> <dbl>   <dbl>   <dbl>  <dbl>
##  1 250001 25        071        59 29.3    5.09    70    71      69.4  21.1 
##  2 250002 25        071        18 25.5    5.09    50    51.4    46.4  19.8 
##  3 250004 25        042        19 22.4    5.09    70    74.8    71    12.7 
##  4 250005 25        255        26  7.3   31.8     30    32      27.0  17   
##  5 250007 25        071        40  8.89  31.8     15    16.0    12.9   9.69
##  6 250008 25        042       203  3.79 127.      15    14.0     8.8   5.59
##  7 250010 25        071        34  7.4   31.8     50    50.3    47.3  23.3 
##  8 250011 25        031        51 21.5    5.09    55    55.0    48.2  26.2 
##  9 250012 25        071         4 13.5   14.1     50    52.4    50.8  16.8 
## 10 250013 25        073        40 10.3   14.1     20    22.4    15.8  11   
## # ... with 35,655 more rows
```
…
