Data transformation (II)
…
# Data transformation (II)
## Piping and conditional transformations
### Aitor Ameztegui
### Marcos Rodrigues

---

# Remember our data set

```r
trees
```

```
## # A tibble: 111,756 x 10
##    Codi   Provincia Especie Rumbo  Dist      N    CD DiamIf3 DiamIf2 HeiIf3
##    <fct>  <chr>     <fct>   <dbl> <dbl>  <dbl> <dbl>   <dbl>   <dbl>  <dbl>
##  1 080001 08        022         7  8.3   31.8     20    20.3    18.9    9  
##  2 080002 08        476        38  9.1   31.8     35    34      32.4    9  
##  3 080003 08        021        25  7     31.8     25    24.8    17.6   11  
##  4 080004 08        021        28  8.89  31.8     15    16.8    12.6    9.5
##  5 080006 08        021        19 11.2   14.1     35    34.0    30.9   13  
##  6 080007 08        021        32 12     14.1     35    33.1    28.2   10  
##  7 080008 08        243        40  7.8   31.8     15    15      13.2    6  
##  8 080009 08        045        16  5.09  31.8     20    17.5    15.3    7  
##  9 080010 08        243        47 26.9    5.09    65    67.4    66.8   16.5
## 10 080013 08        022        44  2.7  127.      15    15.1    12.6    9.5
## # … with 111,746 more rows
```

---

# Remember our data set

```r
plots
```

```
## # A tibble: 11,858 x 15
##    Codi  Provincia Cla   Subclase FccTot FccArb FechaIni   HoraIni            
##    <fct> <chr>     <fct> <fct>     <int>  <int> <date>     <dttm>             
##  1 0800… 08        A     1            80     70 2001-07-09 2017-11-26 09:44:00
##  2 0800… 08        A     1            80     70 2001-08-06 2017-11-26 09:18:58
##  3 0800… 08        A     1            90     80 2001-08-06 2017-11-26 12:08:09
##  4 0800… 08        A     1            90     50 2001-07-09 2017-11-26 13:23:23
##  5 0800… 08        A     1            70     60 2001-08-03 2017-11-26 09:11:28
##  6 0800… 08        A     1            90     90 2001-08-01 2017-11-26 13:00:33
##  7 0800… 08        A     1            90     90 2001-08-07 2017-11-26 10:08:15
##  8 0800… 08        A     1            70     60 2001-08-03 2017-11-26 12:12:03
##  9 0800… 08        A     1            80     70 2001-08-02 2017-11-26 09:00:16
## 10 0800… 08        A     1            80     80 2001-06-14 2017-11-26 12:34:21
## # … with 11,848 more rows, and 7 more variables: FechaFin <date>, HoraFin <dttm>,
## #   Rocosid <int>, Textura <int>, MatOrg <int>, PhSuelo <int>, FechaPh <date>
```
…
# Grouped `mutate`/`filter`

Sometimes, however, we may be interested in calculating new variables by group, but without
reducing the dimensions:

```r
trees %>%
  group_by(Especie) %>%
  mutate(
    std_diam = DiamIf3 - mean(DiamIf3)
  )
```

```
## # A tibble: 111,756 x 11
## # Groups:   Especie [91]
##    Codi   Provincia Especie Rumbo  Dist      N    CD DiamIf3 DiamIf2 HeiIf3 std_diam
##    <fct>  <chr>     <fct>   <dbl> <dbl>  <dbl> <dbl>   <dbl>   <dbl>  <dbl>    <dbl>
##  1 080001 08        022         7  8.3   31.8     20    20.3    18.9    9     -6.71 
##  2 080002 08        476        38  9.1   31.8     35    34      32.4    9     13.5  
##  3 080003 08        021        25  7     31.8     25    24.8    17.6   11     -0.555
##  4 080004 08        021        28  8.89  31.8     15    16.8    12.6    9.5   -8.50 
##  5 080006 08        021        19 11.2   14.1     35    34.0    30.9   13      8.70 
##  6 080007 08        021        32 12     14.1     35    33.1    28.2   10      7.75 
##  7 080008 08        243        40  7.8   31.8     15    15      13.2    6     -5.86 
##  8 080009 08        045        16  5.09  31.8     20    17.5    15.3    7      1.40 
##  9 080010 08        243        47 26.9    5.09    65    67.4    66.8   16.5   46.5  
## 10 080013 08        022        44  2.7  127.      15    15.1    12.6    9.5  -11.9  
## # … with 111,746 more rows
```
…
# Targeted transformations

## `mutate_if` and `mutate_at`

The same can be done with `mutate`:

.pull-left[

```r
mutate_if(trees, is.numeric, log)
```

```
## # A tibble: 111,756 x 10
##    Codi   Provincia Especie Rumbo  Dist     N    CD DiamIf3 DiamIf2 HeiIf3
##    <fct>  <chr>     <fct>   <dbl> <dbl> <dbl> <dbl>   <dbl>   <dbl>  <dbl>
##  1 080001 08        022      1.95 2.12   3.46  3.00    3.01    2.94   2.20
##  2 080002 08        476      3.64 2.21   3.46  3.56    3.53    3.48   2.20
##  3 080003 08        021      3.22 1.95   3.46  3.22    3.21    2.87   2.40
##  4 080004 08        021      3.33 2.18   3.46  2.71    2.82    2.54   2.25
##  5 080006 08        021      2.94 2.42   2.65  3.56    3.53    3.43   2.56
##  6 080007 08        021      3.47 2.48   2.65  3.56    3.50    3.34   2.30
##  7 080008 08        243      3.69 2.05   3.46  2.71    2.71    2.58   1.79
##  8 080009 08        045      2.77 1.63   3.46  3.00    2.86    2.73   1.95
##  9 080010 08        243      3.85 3.29   1.63  4.17    4.21    4.20   2.80
## 10 080013 08        022      3.78 0.993  4.85  2.71    2.71    2.53   2.25
## # … with 111,746 more rows
```
…
.pull-right[

```r
mutate_at(
  trees, vars(one_of(c('Especie', 'Species'))),
  ~ paste0('sp_', .x)
)
```

```
## Warning: Unknown columns: `Species`
```

```
## # A tibble: 111,756 x 10
##    Codi   Provincia Especie Rumbo  Dist      N    CD DiamIf3 DiamIf2 HeiIf3
##    <fct>  <chr>     <chr>   <dbl> <dbl>  <dbl> <dbl>   <dbl>   <dbl>  <dbl>
##  1 080001 08        sp_022      7  8.3   31.8     20    20.3    18.9    9  
##  2 080002 08        sp_476     38  9.1   31.8     35    34      32.4    9  
##  3 080003 08        sp_021     25  7     31.8     25    24.8    17.6   11  
##  4 080004 08        sp_021     28  8.89  31.8     15    16.8    12.6    9.5
##  5 080006 08        sp_021     19 11.2   14.1     35    34.0    30.9   13  
##  6 080007 08        sp_021     32 12     14.1     35    33.1    28.2   10  
##  7 080008 08        sp_243     40  7.8   31.8     15    15      13.2    6  
##  8 080009 08        sp_045     16  5.09  31.8     20    17.5    15.3    7  
##  9 080010 08        sp_243     47 26.9    5.09    65    67.4    66.8   16.5
## 10 080013 08        sp_022     44  2.7  127.      15    15.1    12.6    9.5
## # … with 111,746 more rows
```
…
