Relational data
…
---
# Working with two tables

```r
plots
```

```
## # A tibble: 11,858 x 17
##    Codi   Provincia Cla   Subclase FccTot FccArb FechaIni   HoraIni            
##    <fct>  <fct>     <fct> <fct>     <int>  <int> <date>     <dttm>             
##  1 080001 08        A     1            80     70 2001-07-09 2017-11-26 09:44:00
##  2 080002 08        A     1            80     70 2001-08-06 2017-11-26 09:18:58
##  3 080003 08        A     1            90     80 2001-08-06 2017-11-26 12:08:09
##  4 080004 08        A     1            90     50 2001-07-09 2017-11-26 13:23:23
##  5 080005 08        A     1            70     60 2001-08-03 2017-11-26 09:11:28
##  6 080006 08        A     1            90     90 2001-08-01 2017-11-26 13:00:33
##  7 080007 08        A     1            90     90 2001-08-07 2017-11-26 10:08:15
##  8 080008 08        A     1            70     60 2001-08-03 2017-11-26 12:12:03
##  9 080009 08        A     1            80     70 2001-08-02 2017-11-26 09:00:16
## 10 080010 08        A     1            80     80 2001-06-14 2017-11-26 12:34:21
## # ... with 11,848 more rows, and 9 more variables: FechaFin <date>,
## #   HoraFin <dttm>, Rocosid <int>, Textura <int>, MatOrg <int>, PhSuelo <int>,
## #   FechaPh <date>, Dom_sp2 <fct>, Dom_sp3 <fct>
```

---
# Working with two tables

```r
coordinates
```

```
## # A tibble: 11,766 x 6
##    Codi   Provincia Estadillo Cla    CoorX   CoorY
##    <fct>  <chr>     <chr>     <fct>  <int>   <int>
##  1 080001 08        0001      A     402000 4684000
##  2 080002 08        0002      A     400000 4683000
##  3 080003 08        0003      A     401000 4683000
##  4 080004 08        0004      A     402000 4683000
##  5 080005 08        0005      A     400000 4682000
##  6 080006 08        0006      A     397000 4681000
##  7 080007 08        0007      A     399000 4681000
##  8 080008 08        0008      A     401000 4681000
##  9 080009 08        0009      A     402000 4681000
## 10 080010 08        0010      A     394000 4680000
## # ... with 11,756 more rows
```
…
]
    
---

# Joining data 

## Mutating joins (1)

```r
left_join(plots, coordinates, by = "Codi")
```

```
## # A tibble: 11,858 x 22
##    Codi  Provincia.x Cla.x Subclase FccTot FccArb FechaIni   HoraIni            
##    <fct> <fct>       <fct> <fct>     <int>  <int> <date>     <dttm>             
##  1 0800~ 08          A     1            80     70 2001-07-09 2017-11-26 09:44:00
##  2 0800~ 08          A     1            80     70 2001-08-06 2017-11-26 09:18:58
##  3 0800~ 08          A     1            90     80 2001-08-06 2017-11-26 12:08:09
##  4 0800~ 08          A     1            90     50 2001-07-09 2017-11-26 13:23:23
##  5 0800~ 08          A     1            70     60 2001-08-03 2017-11-26 09:11:28
##  6 0800~ 08          A     1            90     90 2001-08-01 2017-11-26 13:00:33
##  7 0800~ 08          A     1            90     90 2001-08-07 2017-11-26 10:08:15
##  8 0800~ 08          A     1            70     60 2001-08-03 2017-11-26 12:12:03
##  9 0800~ 08          A     1            80     70 2001-08-02 2017-11-26 09:00:16
## 10 0800~ 08          A     1            80     80 2001-06-14 2017-11-26 12:34:21
## # ... with 11,848 more rows, and 14 more variables: FechaFin <date>,
## #   HoraFin <dttm>, Rocosid <int>, Textura <int>, MatOrg <int>, PhSuelo <int>,
## #   FechaPh <date>, Dom_sp2 <fct>, Dom_sp3 <fct>, Provincia.y <chr>,
## #   Estadillo <chr>, Cla.y <fct>, CoorX <int>, CoorY <int>
```

---

# Joining data 

## Mutating joins (1)

```r
right_join(plots, coordinates, by = "Codi")
```

```
## # A tibble: 11,766 x 22
##    Codi  Provincia.x Cla.x Subclase FccTot FccArb FechaIni   HoraIni            
##    <fct> <fct>       <fct> <fct>     <int>  <int> <date>     <dttm>             
##  1 0800~ 08          A     1            80     70 2001-07-09 2017-11-26 09:44:00
##  2 0800~ 08          A     1            80     70 2001-08-06 2017-11-26 09:18:58
##  3 0800~ 08          A     1            90     80 2001-08-06 2017-11-26 12:08:09
##  4 0800~ 08          A     1            90     50 2001-07-09 2017-11-26 13:23:23
##  5 0800~ 08          A     1            70     60 2001-08-03 2017-11-26 09:11:28
##  6 0800~ 08          A     1            90     90 2001-08-01 2017-11-26 13:00:33
##  7 0800~ 08          A     1            90     90 2001-08-07 2017-11-26 10:08:15
##  8 0800~ 08          A     1            70     60 2001-08-03 2017-11-26 12:12:03
##  9 0800~ 08          A     1            80     70 2001-08-02 2017-11-26 09:00:16
## 10 0800~ 08          A     1            80     80 2001-06-14 2017-11-26 12:34:21
## # ... with 11,756 more rows, and 14 more variables: FechaFin <date>,
## #   HoraFin <dttm>, Rocosid <int>, Textura <int>, MatOrg <int>, PhSuelo <int>,
## #   FechaPh <date>, Dom_sp2 <fct>, Dom_sp3 <fct>, Provincia.y <chr>,
## #   Estadillo <chr>, Cla.y <fct>, CoorX <int>, CoorY <int>
```
…
]
  
---

# Joining data 

## Mutating joins (2)

```r
full_join(plots, coordinates, by = "Codi")
```

```
## # A tibble: 11,858 x 22
##    Codi  Provincia.x Cla.x Subclase FccTot FccArb FechaIni   HoraIni            
##    <fct> <fct>       <fct> <fct>     <int>  <int> <date>     <dttm>             
##  1 0800~ 08          A     1            80     70 2001-07-09 2017-11-26 09:44:00
##  2 0800~ 08          A     1            80     70 2001-08-06 2017-11-26 09:18:58
##  3 0800~ 08          A     1            90     80 2001-08-06 2017-11-26 12:08:09
##  4 0800~ 08          A     1            90     50 2001-07-09 2017-11-26 13:23:23
##  5 0800~ 08          A     1            70     60 2001-08-03 2017-11-26 09:11:28
##  6 0800~ 08          A     1            90     90 2001-08-01 2017-11-26 13:00:33
##  7 0800~ 08          A     1            90     90 2001-08-07 2017-11-26 10:08:15
##  8 0800~ 08          A     1            70     60 2001-08-03 2017-11-26 12:12:03
##  9 0800~ 08          A     1            80     70 2001-08-02 2017-11-26 09:00:16
## 10 0800~ 08          A     1            80     80 2001-06-14 2017-11-26 12:34:21
## # ... with 11,848 more rows, and 14 more variables: FechaFin <date>,
## #   HoraFin <dttm>, Rocosid <int>, Textura <int>, MatOrg <int>, PhSuelo <int>,
## #   FechaPh <date>, Dom_sp2 <fct>, Dom_sp3 <fct>, Provincia.y <chr>,
## #   Estadillo <chr>, Cla.y <fct>, CoorX <int>, CoorY <int>
```

---

# Joining data 

## Mutating joins (2)

```r
inner_join(plots, coordinates, by = "Codi")
```

```
## # A tibble: 11,766 x 22
##    Codi  Provincia.x Cla.x Subclase FccTot FccArb FechaIni   HoraIni            
##    <fct> <fct>       <fct> <fct>     <int>  <int> <date>     <dttm>             
##  1 0800~ 08          A     1            80     70 2001-07-09 2017-11-26 09:44:00
##  2 0800~ 08          A     1            80     70 2001-08-06 2017-11-26 09:18:58
##  3 0800~ 08          A     1            90     80 2001-08-06 2017-11-26 12:08:09
##  4 0800~ 08          A     1            90     50 2001-07-09 2017-11-26 13:23:23
##  5 0800~ 08          A     1            70     60 2001-08-03 2017-11-26 09:11:28
##  6 0800~ 08          A     1            90     90 2001-08-01 2017-11-26 13:00:33
##  7 0800~ 08          A     1            90     90 2001-08-07 2017-11-26 10:08:15
##  8 0800~ 08          A     1            70     60 2001-08-03 2017-11-26 12:12:03
##  9 0800~ 08          A     1            80     70 2001-08-02 2017-11-26 09:00:16
## 10 0800~ 08          A     1            80     80 2001-06-14 2017-11-26 12:34:21
## # ... with 11,756 more rows, and 14 more variables: FechaFin <date>,
## #   HoraFin <dttm>, Rocosid <int>, Textura <int>, MatOrg <int>, PhSuelo <int>,
## #   FechaPh <date>, Dom_sp2 <fct>, Dom_sp3 <fct>, Provincia.y <chr>,
## #   Estadillo <chr>, Cla.y <fct>, CoorX <int>, CoorY <int>
```
…
]

---

# Joining data

## Filtering joins

```r
semi_join(plots, coordinates, by = "Codi")
```

```
## # A tibble: 11,766 x 17
##    Codi   Provincia Cla   Subclase FccTot FccArb FechaIni   HoraIni            
##    <fct>  <fct>     <fct> <fct>     <int>  <int> <date>     <dttm>             
##  1 080001 08        A     1            80     70 2001-07-09 2017-11-26 09:44:00
##  2 080002 08        A     1            80     70 2001-08-06 2017-11-26 09:18:58
##  3 080003 08        A     1            90     80 2001-08-06 2017-11-26 12:08:09
##  4 080004 08        A     1            90     50 2001-07-09 2017-11-26 13:23:23
##  5 080005 08        A     1            70     60 2001-08-03 2017-11-26 09:11:28
##  6 080006 08        A     1            90     90 2001-08-01 2017-11-26 13:00:33
##  7 080007 08        A     1            90     90 2001-08-07 2017-11-26 10:08:15
##  8 080008 08        A     1            70     60 2001-08-03 2017-11-26 12:12:03
##  9 080009 08        A     1            80     70 2001-08-02 2017-11-26 09:00:16
## 10 080010 08        A     1            80     80 2001-06-14 2017-11-26 12:34:21
## # ... with 11,756 more rows, and 9 more variables: FechaFin <date>,
## #   HoraFin <dttm>, Rocosid <int>, Textura <int>, MatOrg <int>, PhSuelo <int>,
## #   FechaPh <date>, Dom_sp2 <fct>, Dom_sp3 <fct>
```

---

# Joining data

## Filtering joins

```r
anti_join(plots, coordinates, by = "Codi")
```

```
## # A tibble: 92 x 17
##    Codi   Provincia Cla   Subclase FccTot FccArb FechaIni   HoraIni            
##    <fct>  <fct>     <fct> <fct>     <int>  <int> <date>     <dttm>             
##  1 080232 08        A     1            95     70 2001-02-14 2017-11-26 09:34:12
##  2 080281 08        A     1            80     75 2001-04-25 2017-11-26 09:59:06
##  3 080531 08        A     1            90     50 2001-02-14 2017-11-26 13:26:40
##  4 080866 08        A     1           100     65 2000-08-28 2017-11-26 11:13:11
##  5 080956 08        A     1           100     90 2000-10-24 2017-11-26 10:25:01
##  6 081122 08        A     1           100     60 2000-12-01 2017-11-26 09:49:35
##  7 081411 08        A     1            70     60 2001-04-18 2017-11-26 10:00:40
##  8 081519 08        A     1           100     60 2000-11-30 2017-11-26 10:30:34
##  9 081784 08        A     1            90     55 2000-08-10 2017-11-26 09:59:31
## 10 081793 08        A     1            50     30 2000-11-14 2017-11-26 14:32:57
## # ... with 82 more rows, and 9 more variables: FechaFin <date>, HoraFin <dttm>,
## #   Rocosid <int>, Textura <int>, MatOrg <int>, PhSuelo <int>, FechaPh <date>,
## #   Dom_sp2 <fct>, Dom_sp3 <fct>
```
…
