Lab 2.1 - Data transformation (I): Create new variables, filter, select and organize data
…
2.1 Let’s have a look at
the data

It is important that we get to know a little bit our data sets before
starting to work with them. To load the data frames you need to type
load("data/data_SNFI3.Rdata") or click on the
“data_SNFI3.Rdata” file within the “data” folder in the
Files tab of RStudio. You will see tthat the 7 data frames
have been added to your environment. To have a look at them we just need
to type their name:

plots

## # A tibble: 11,858 × 17
##    Code   Province Class Subclass FccTot FccArb IniDate    IniTime            
##    <fct>  <fct>    <fct> <fct>     <int>  <int> <date>     <dttm>             
##  1 080001 08       A     1            80     70 2001-07-09 2001-07-09 09:44:00
##  2 080002 08       A     1            80     70 2001-08-06 2001-08-06 09:18:58
##  3 080003 08       A     1            90     80 2001-08-06 2001-08-06 12:08:09
##  4 080004 08       A     1            90     50 2001-07-09 2001-07-09 13:23:23
##  5 080005 08       A     1            70     60 2001-08-03 2001-08-03 09:11:28
##  6 080006 08       A     1            90     90 2001-08-01 2001-08-01 13:00:33
##  7 080007 08       A     1            90     90 2001-08-07 2001-08-07 10:08:15
##  8 080008 08       A     1            70     60 2001-08-03 2001-08-03 12:12:03
##  9 080009 08       A     1            80     70 2001-08-02 2001-08-02 09:00:16
## 10 080010 08       A     1            80     80 2001-06-14 2001-06-14 12:34:21
## # ℹ 11,848 more rows
## # ℹ 9 more variables: FinDate <date>, FinTime <dttm>, Rocks <int>,
## #   Texture <int>, OrgMat <int>, SoilPh <int>, PhDate <date>,
## #   Dom_sp_IFN2 <fct>, Dom_sp_IFN3 <fct>

trees

## # A tibble: 111,756 × 10
##    Code   Province Species Direction  Dist      N DC    DBH_3 DBH_2 Height_3
##    <fct>  <fct>    <fct>       <dbl> <dbl>  <dbl> <fct> <dbl> <dbl>    <dbl>
##  1 080001 08       022             7  8.3   31.8  20     20.3  18.9      9  
##  2 080002 08       476            38  9.1   31.8  35     34    32.4      9  
##  3 080003 08       021            25  7     31.8  25     24.8  17.6     11  
##  4 080004 08       021            28  8.89  31.8  15     16.8  12.6      9.5
##  5 080006 08       021            19 11.2   14.1  35     34.0  30.9     13  
##  6 080007 08       021            32 12     14.1  35     33.1  28.2     10  
##  7 080008 08       243            40  7.8   31.8  15     15    13.2      6  
##  8 080009 08       045            16  5.09  31.8  20     17.5  15.3      7  
##  9 080010 08       243            47 26.9    5.09 65     67.4  66.8     16.5
## 10 080013 08       022            44  2.7  127.   15     15.1  12.6      9.5
## # ℹ 111,746 more rows

size_distrib

## # A tibble: 14,778 × 15
##    Code   Species CD_10 CD_15 CD_20 CD_25 CD_30 CD_35 CD_40 CD_45 CD_50 CD_55
##    <fct>  <fct>   <dbl> <dbl> <dbl> <dbl> <dbl> <dbl> <dbl> <dbl> <dbl> <dbl>
##  1 080001 022         0 159.   31.8 111.  60.1   19.2  5.09   0    0        0
##  2 080002 021         0   0     0     0    0     74.2 28.3   63.7  0        0
##  3 080002 022         0   0     0   173.  31.8    0    0      0    0        0
##  4 080002 476         0   0     0     0    0     31.8  0      0    0        0
##  5 080003 021         0   0     0    31.8  0      0    0      0    5.09     0
##  6 080003 022         0 127.    0     0   46.0  127.   0     14.1  0        0
##  7 080004 021         0  31.8   0     0   31.8    0    0      0    0        0
##  8 080005 071         0   0     0    14.1  5.09  31.8  0      0    0        0
##  9 080005 243         0   0    14.1   0   14.1    0    5.09   0    0        0
## 10 080005 278         0 286.   31.8   0    0     31.8  0      0    0        0
## # ℹ 14,768 more rows
## # ℹ 3 more variables: CD_60 <dbl>, CD_65 <dbl>, CD_70 <dbl>

coordinates

## # A tibble: 11,766 × 5
##    Code   Province Class  CoorX   CoorY
##    <fct>  <fct>    <fct>  <int>   <int>
##  1 080001 08       A     402000 4684000
##  2 080002 08       A     400000 4683000
##  3 080003 08       A     401000 4683000
##  4 080004 08       A     402000 4683000
##  5 080005 08       A     400000 4682000
##  6 080006 08       A     397000 4681000
##  7 080007 08       A     399000 4681000
##  8 080008 08       A     401000 4681000
##  9 080009 08       A     402000 4681000
## 10 080010 08       A     394000 4680000
## # ℹ 11,756 more rows

leaf

## # A tibble: 10,447 × 3
##    Code   leaf_biomass leaf_carbon
##    <chr>         <dbl>       <dbl>
##  1 080001        4.99        2.58 
##  2 080002        2.39        1.23 
##  3 080003        2.97        1.53 
##  4 080004        0.395       0.200
##  5 080005        1.34        0.644
##  6 080006        4.03        2.07 
##  7 080007        5.97        3.04 
##  8 080008        0.928       0.452
##  9 080009        3.85        1.94 
## 10 080010        1.54        0.758
## # ℹ 10,437 more rows

prov_names

## # A tibble: 52 × 2
##    Province Prov_name    
##    <chr>    <chr>        
##  1 01       Araba        
##  2 02       Albacete     
##  3 03       Alacant      
##  4 04       Almeria      
##  5 05       Avila        
##  6 06       Badajoz      
##  7 07       Illes Balears
##  8 08       Barcelona    
##  9 09       Burgos       
## 10 10       Caceres      
## # ℹ 42 more rows

sps_codes

## # A tibble: 190 × 4
##    Name                  Common_Name CodeIFN2 CodeIFN3
##    <chr>                 <chr>       <fct>    <fct>   
##  1 Heberdenia bahamensis Aderno      001      001     
##  2 Amelanchier ovalis    Guillomo    002      002     
##  3 Frangula alnus        Arraclán    003      003     
##  4 Rhamnus alaternus     Aladierno   004      004     
##  5 Euonymus europaeus    Bonetero    005      005     
##  6 Myrtus communis       Mirto       006      006     
##  7 Acacia spp.           Acacia      007      007     
##  8 Phillyrea latifolia   Agracejo    008      008     
##  9 Cornus sanguinea      Cornejo     009      009     
## 10 <NA>                  <NA>        010      010     
## # ℹ 180 more rows
…
Let’s see a few basic examples applied to the trees
table:

Get trees taller than 6 meters:

filter(trees, Height_3 > 6) 

## # A tibble: 100,247 × 10
##    Code   Province Species Direction  Dist      N DC    DBH_3 DBH_2 Height_3
##    <fct>  <fct>    <fct>       <dbl> <dbl>  <dbl> <fct> <dbl> <dbl>    <dbl>
##  1 080001 08       022             7  8.3   31.8  20     20.3  18.9      9  
##  2 080002 08       476            38  9.1   31.8  35     34    32.4      9  
##  3 080003 08       021            25  7     31.8  25     24.8  17.6     11  
##  4 080004 08       021            28  8.89  31.8  15     16.8  12.6      9.5
##  5 080006 08       021            19 11.2   14.1  35     34.0  30.9     13  
##  6 080007 08       021            32 12     14.1  35     33.1  28.2     10  
##  7 080009 08       045            16  5.09  31.8  20     17.5  15.3      7  
##  8 080010 08       243            47 26.9    5.09 65     67.4  66.8     16.5
##  9 080013 08       022            44  2.7  127.   15     15.1  12.6      9.5
## 10 080014 08       021            13  8.89  31.8  20     19.2  14.2     11.5
## # ℹ 100,237 more rows

Get trees in Tarragona (province 43):

filter(trees, Province == '43')

## # A tibble: 9,693 × 10
##    Code   Province Species Direction  Dist     N DC    DBH_3 DBH_2 Height_3
##    <fct>  <fct>    <fct>       <dbl> <dbl> <dbl> <fct> <dbl> <dbl>    <dbl>
##  1 430003 43       024             6  9.69  31.8 30     28.1 20.4      10.5
##  2 430006 43       023            24  9.69  31.8 30     28.2 23.2      10.5
##  3 430007 43       024             0  8.8   31.8 30     30.4 27.8      10.5
##  4 430009 43       024            15  9.89  31.8 30     30.4 30.4      11  
##  5 430010 43       024            33 12.1   14.1 45     47.2 42.0      13.5
##  6 430011 43       044             1  2.09 127.  10     11.0  9.65      6  
##  7 430012 43       024            31 13     14.1 35     33.0 26.5      12.5
##  8 430013 43       024            80  1.89 127.  40     38.4 35.7      11  
##  9 430014 43       025             4  4.3  127.  15     14.0 11.2       5  
## 10 430015 43       024            22 11.2   14.1 30     31.2 27.4       9  
## # ℹ 9,683 more rows

Note that you need the double == to create the
condition. the difference between == and = was
explained in the introductory lessons, but you can find a good thread
about this issue in this forum
(I told you that you can find all the answers in R forums ;-)

Get trees in diametric classes 45 and 70:

filter(trees, DC %in% c(45, 70))

## # A tibble: 2,552 × 10
##    Code   Province Species Direction  Dist     N DC    DBH_3 DBH_2 Height_3
##    <fct>  <fct>    <fct>       <dbl> <dbl> <dbl> <fct> <dbl> <dbl>    <dbl>
##  1 080016 08       071             9 26.9   5.09 45     46.0  45       19  
##  2 080113 08       021            19 11.1  14.1  70     72.6  70.7     20.9
##  3 080686 08       042            43  7.09 31.8  45     44.3  42.5     12.5
##  4 080721 08       042            16 15.8   5.09 45     46.2  39.8     17.5
##  5 080743 08       042             3  9.69 31.8  45     46.1  40.7     25.5
##  6 081271 08       024            93 10.8  14.1  45     44.0  39.0     17.3
##  7 081278 08       024            87 10.1  14.1  45     44.6  38.9     15.1
##  8 081354 08       026            16  8.6  31.8  45     43.4  30.8     16.9
##  9 081402 08       054            51  5.19 31.8  70    102.   95.5     17.7
## 10 081943 08       024             1 10.3  14.1  45     43.2  33.8     11.7
## # ℹ 2,542 more rows
…
Let’s see some examples:

Selecting a single column/variable:

select(trees, DBH_3)

## # A tibble: 111,756 × 1
##    DBH_3
##    <dbl>
##  1  20.3
##  2  34  
##  3  24.8
##  4  16.8
##  5  34.0
##  6  33.1
##  7  15  
##  8  17.5
##  9  67.4
## 10  15.1
## # ℹ 111,746 more rows

Selecting all columns but the targeted one. The -
operator excludes the targeted variable so that we only keep the
remaining variables:

select(trees, -Code)

## # A tibble: 111,756 × 9
##    Province Species Direction  Dist      N DC    DBH_3 DBH_2 Height_3
##    <fct>    <fct>       <dbl> <dbl>  <dbl> <fct> <dbl> <dbl>    <dbl>
##  1 08       022             7  8.3   31.8  20     20.3  18.9      9  
##  2 08       476            38  9.1   31.8  35     34    32.4      9  
##  3 08       021            25  7     31.8  25     24.8  17.6     11  
##  4 08       021            28  8.89  31.8  15     16.8  12.6      9.5
##  5 08       021            19 11.2   14.1  35     34.0  30.9     13  
##  6 08       021            32 12     14.1  35     33.1  28.2     10  
##  7 08       243            40  7.8   31.8  15     15    13.2      6  
##  8 08       045            16  5.09  31.8  20     17.5  15.3      7  
##  9 08       243            47 26.9    5.09 65     67.4  66.8     16.5
## 10 08       022            44  2.7  127.   15     15.1  12.6      9.5
## # ℹ 111,746 more rows

Select several columns:

select(trees, DBH_2, DBH_3)

## # A tibble: 111,756 × 2
##    DBH_2 DBH_3
##    <dbl> <dbl>
##  1  18.9  20.3
##  2  32.4  34  
##  3  17.6  24.8
##  4  12.6  16.8
##  5  30.9  34.0
##  6  28.2  33.1
##  7  13.2  15  
##  8  15.3  17.5
##  9  66.8  67.4
## 10  12.6  15.1
## # ℹ 111,746 more rows

Selecting a range of columns. The : operator allows
referencing a set of contiguous columns so that all variables contained
in that range will be included:

select(trees, Code:Dist)

## # A tibble: 111,756 × 5
##    Code   Province Species Direction  Dist
##    <fct>  <fct>    <fct>       <dbl> <dbl>
##  1 080001 08       022             7  8.3 
##  2 080002 08       476            38  9.1 
##  3 080003 08       021            25  7   
##  4 080004 08       021            28  8.89
##  5 080006 08       021            19 11.2 
##  6 080007 08       021            32 12   
##  7 080008 08       243            40  7.8 
##  8 080009 08       045            16  5.09
##  9 080010 08       243            47 26.9 
## 10 080013 08       022            44  2.7 
## # ℹ 111,746 more rows

We can combine - and : to exclude a range
of columns, though we must use a vector to specify the
range using parenthesis:

#(trees, -Codi:Dist) this won't work
select(trees,-(Code:Dist))  # This will work

## # A tibble: 111,756 × 5
##         N DC    DBH_3 DBH_2 Height_3
##     <dbl> <fct> <dbl> <dbl>    <dbl>
##  1  31.8  20     20.3  18.9      9  
##  2  31.8  35     34    32.4      9  
##  3  31.8  25     24.8  17.6     11  
##  4  31.8  15     16.8  12.6      9.5
##  5  14.1  35     34.0  30.9     13  
##  6  14.1  35     33.1  28.2     10  
##  7  31.8  15     15    13.2      6  
##  8  31.8  20     17.5  15.3      7  
##  9   5.09 65     67.4  66.8     16.5
## 10 127.   15     15.1  12.6      9.5
## # ℹ 111,746 more rows
…
one_of ("x", "y", "z"): selects variables provided
in a character vector.

You can check the list of special functions with
help(select), or checking the tidyselect
website.

Let’s try one of these special functions:

Select any column that starts with the string DBH:

select(trees, starts_with('DBH'))

## # A tibble: 111,756 × 2
##    DBH_3 DBH_2
##    <dbl> <dbl>
##  1  20.3  18.9
##  2  34    32.4
##  3  24.8  17.6
##  4  16.8  12.6
##  5  34.0  30.9
##  6  33.1  28.2
##  7  15    13.2
##  8  17.5  15.3
##  9  67.4  66.8
## 10  15.1  12.6
## # ℹ 111,746 more rows

Select any column that contains the letter D:

select(trees,contains('D'))

## # A tibble: 111,756 × 6
##    Code   Direction  Dist DC    DBH_3 DBH_2
##    <fct>      <dbl> <dbl> <fct> <dbl> <dbl>
##  1 080001         7  8.3  20     20.3  18.9
##  2 080002        38  9.1  35     34    32.4
##  3 080003        25  7    25     24.8  17.6
##  4 080004        28  8.89 15     16.8  12.6
##  5 080006        19 11.2  35     34.0  30.9
##  6 080007        32 12    35     33.1  28.2
##  7 080008        40  7.8  15     15    13.2
##  8 080009        16  5.09 20     17.5  15.3
##  9 080010        47 26.9  65     67.4  66.8
## 10 080013        44  2.7  15     15.1  12.6
## # ℹ 111,746 more rows
…
Let’s see a few examples:

Sort trees ascending by height in the third forest inventory:

arrange(trees, Height_3)

## # A tibble: 111,756 × 10
##    Code   Province Species Direction  Dist     N DC    DBH_3 DBH_2 Height_3
##    <fct>  <fct>    <fct>       <dbl> <dbl> <dbl> <fct> <dbl> <dbl>    <dbl>
##  1 171919 17       045            72  4.5  127.  10    10.2  10.4      1.5 
##  2 171806 17       046           138  4.5  127.  10    11.9   9.95     1.5 
##  3 171049 17       045           331  3.29 127.  10     7.65  7.65     1.5 
##  4 080073 08       071           269  3.9  127.  10    10.4   9.2      1.6 
##  5 082415 08       045             9  4.69 127.  10     9.7   9.7      1.79
##  6 082451 08       044            33  1    127.  10     7.9   8.1      2   
##  7 171959 17       068            17  3.29 127.  10     9.95  8.4      2   
##  8 250494 25       042            29  3.09 127.  10     8.45  8.45     2   
##  9 251649 25       022             5  5.5   31.8 15    14    14        2   
## 10 080664 08       042            49  4.19 127.  10     8.45  8.3      2   
## # ℹ 111,746 more rows

Sort them descending:

arrange(trees, desc(Height_3))

## # A tibble: 111,756 × 10
##    Code   Province Species Direction  Dist     N DC    DBH_3 DBH_2 Height_3
##    <fct>  <fct>    <fct>       <dbl> <dbl> <dbl> <fct> <dbl> <dbl>    <dbl>
##  1 171851 17       034           335 11.4  14.1  55     56.4  46.8     38  
##  2 170121 17       258           380 14.2  14.1  50     48.7  40.6     37.5
##  3 171707 17       258           282 16.8   5.09 55     54.2  43.6     37.2
##  4 170121 17       258           372 21.3   5.09 55     56.9  49.5     36  
##  5 170709 17       071           316 22.9   5.09 55     56.6  45.2     36  
##  6 171851 17       034           373  7.19 31.8  55     54.6  48.6     36  
##  7 250047 25       031           330 11.9  14.1  70     74.2  70.3     35.8
##  8 250025 25       031           350 34.8   5.09 70     75.1  71.3     35.7
##  9 250047 25       031           181  8.6  31.8  65     63.3  60.8     35.5
## 10 170709 17       071           298 26.2   5.09 60     62.4  55.0     35.5
## # ℹ 111,746 more rows
…
The basic syntax of mutate allows to especify the name
of variable (variable_name = data_operation) and then the
operation by which we assign information to it.

Let’s see some examples:

Calculate a new variable with tree height in cm:

mutate(trees, Height_cm = Height_3 * 100)

## # A tibble: 111,756 × 11
##    Code   Province Species Direction  Dist      N DC    DBH_3 DBH_2 Height_3
##    <fct>  <fct>    <fct>       <dbl> <dbl>  <dbl> <fct> <dbl> <dbl>    <dbl>
##  1 080001 08       022             7  8.3   31.8  20     20.3  18.9      9  
##  2 080002 08       476            38  9.1   31.8  35     34    32.4      9  
##  3 080003 08       021            25  7     31.8  25     24.8  17.6     11  
##  4 080004 08       021            28  8.89  31.8  15     16.8  12.6      9.5
##  5 080006 08       021            19 11.2   14.1  35     34.0  30.9     13  
##  6 080007 08       021            32 12     14.1  35     33.1  28.2     10  
##  7 080008 08       243            40  7.8   31.8  15     15    13.2      6  
##  8 080009 08       045            16  5.09  31.8  20     17.5  15.3      7  
##  9 080010 08       243            47 26.9    5.09 65     67.4  66.8     16.5
## 10 080013 08       022            44  2.7  127.   15     15.1  12.6      9.5
## # ℹ 111,746 more rows
## # ℹ 1 more variable: Height_cm <dbl>

Note that several operations can be conducted at once just by
separating as many operations as we want, using ,:

mutate(trees,
       Allometry = DBH_3 / Height_3,
       Allometry2 = Allometry * DBH_2
)

## # A tibble: 111,756 × 12
##    Code   Province Species Direction  Dist      N DC    DBH_3 DBH_2 Height_3
##    <fct>  <fct>    <fct>       <dbl> <dbl>  <dbl> <fct> <dbl> <dbl>    <dbl>
##  1 080001 08       022             7  8.3   31.8  20     20.3  18.9      9  
##  2 080002 08       476            38  9.1   31.8  35     34    32.4      9  
##  3 080003 08       021            25  7     31.8  25     24.8  17.6     11  
##  4 080004 08       021            28  8.89  31.8  15     16.8  12.6      9.5
##  5 080006 08       021            19 11.2   14.1  35     34.0  30.9     13  
##  6 080007 08       021            32 12     14.1  35     33.1  28.2     10  
##  7 080008 08       243            40  7.8   31.8  15     15    13.2      6  
##  8 080009 08       045            16  5.09  31.8  20     17.5  15.3      7  
##  9 080010 08       243            47 26.9    5.09 65     67.4  66.8     16.5
## 10 080013 08       022            44  2.7  127.   15     15.1  12.6      9.5
## # ℹ 111,746 more rows
## # ℹ 2 more variables: Allometry <dbl>, Allometry2 <dbl>
…
Now we can apply summarise to get an aggregation value
per group category. In this case we will calculate the mean and maximum
height per tree species:

summarise(
  by_species,
  mean_height = mean(Height_3, na.rm = TRUE),
  max_height = max(Height_3, na.rm = TRUE)
  )

## # A tibble: 91 × 3
##    Species mean_height max_height
##    <fct>         <dbl>      <dbl>
##  1 004            5.4         5.8
##  2 008            6.27       10  
##  3 012            6.78       10  
##  4 013            9.61       17.2
##  5 014            7.45        8  
##  6 015            7           9  
##  7 016            7.72       12  
##  8 017           19.8        28  
##  9 019            7.13       17.3
## 10 021           12.6        28.5
## # ℹ 81 more rows
…
