Data Management and Visualization | Spring 2020 Midterm 01
…
Cal Fire uses the Imperial system of units. That means that fire surfaces are provided in acres (gis_acres). Create a new field in the data frame that contains the surface of each wildfire in hectares (of course, you can google to know which is the conversion rate)

calfire <- calfire %>%
    mutate(sup_ha = gis_acres / 2.471)

Question 2

Our dataset contains information on when the fire was detected, and when it was controlled. Make a table listing the fires that burned for the most time. For how long were they burning? Are they mostly recent fires or ancient fires? Do you see anything worth commenting?

calfire %>%
    mutate(burning_time = cont_date-alarm_date) %>%
    arrange(desc(burning_time))

## # A tibble: 14,847 x 24
##       X1 objectid year_ state agency unit_id fire_name inc_num alarm_date
##    <dbl>    <dbl> <dbl> <chr> <chr>  <chr>   <chr>     <chr>   <date>    
##  1 13308    18448  1990 CA    NPS    YNP     PIUTE     86      1990-08-13
##  2   124      124  2007 CA    USF    TNF     RALSTON   1443    2006-09-05
##  3 13206    18343  2006 CA    NPS    SMP     WESTLAKE  0000CW 2006-07-08
##  4  8153    12651  2012 CA    CCO    KRN     LAVAL     1216604 2012-06-03
##  5 12440    17525  2013 CA    CDF    BTU     PANTHER   5648    2013-05-01
##  6 12410    17495  2013 CA    USF    ANF     POWERHOU 2297    2013-05-30
##  7 13764    18930  2015 CA    USF    BDF     LAKE      7894    2015-06-17
##  8 14187    19355  2016 CA    USF    KNF     PONY      4500    2016-06-07
##  9 11224    16309  2008 CA    USF    KNF     ANTHONY  54      2008-06-19
## 10 11223    16308  2008 CA    USF    KNF     CARIBOU   26      2008-06-21
## #  with 14,837 more rows, and 15 more variables: cont_date <date>,
## #   cause <dbl>, comments <chr>, report_ac <dbl>, gis_acres <dbl>,
## #   c_method <dbl>, objective <dbl>, fire_num <chr>, shape_length <dbl>,
## #   shape_area <dbl>, fire_cause <chr>, plot_date <date>, sup_ha <dbl>,
## #   cause2 <chr>, burning_time <drtn>
…
Question 4

Make a table that lists in descending order the number of wildfires per year. Which year had the highest number of wildfires? Do the same for the total burnt area per year (in hectares). Are the first 5 years in both tables the same? Why do you think its so?

calfire %>% group_by(year_) %>%
    count() %>%
    arrange(desc(n))

## # A tibble: 68 x 2
## # Groups:   year_ [68]
##    year_     n
##    <dbl> <int>
##  1  2017   609
##  2  2008   438
##  3  1979   367
##  4  2016   352
##  5  2012   351
##  6  2007   349
##  7  2003   341
##  8  1996   321
##  9  1980   319
## 10  2015   318
## #  with 58 more rows

calfire %>% group_by(year_) %>% 
    summarise(area = sum(sup_ha)) %>%
    arrange(desc(area))

## # A tibble: 68 x 2
##    year_    area
##    <dbl>   <dbl>
##  1  2017 576596.
##  2  2008 559475.
##  3  2007 420973.
##  4  2003 392748.
##  5  2002 390084.
##  6  1987 349215.
##  7  2012 343065.
##  8  1999 324216.
##  9  2006 301402.
## 10  1970 273581.
## #  with 58 more rows
…
Question 7:

Now we have grouped the causes, make a table that lists the years in descending order of the total number of human-caused fires

calfire %>%
    group_by(year_, cause2) %>%
    count() %>%
    filter(cause2 == "Human") %>%
    arrange(desc(n))

## # A tibble: 68 x 3
## # Groups:   year_, cause2 [68]
##    year_ cause2     n
##    <dbl> <chr>  <int>
##  1  2017 Human    275
##  2  2004 Human    192
##  3  2007 Human    192
##  4  2012 Human    190
##  5  2005 Human    183
##  6  2016 Human    181
##  7  2011 Human    179
##  8  2002 Human    178
##  9  2003 Human    166
## 10  1996 Human    162
## #  with 58 more rows

Question 8

Calculate the proportion of human-caused wildfires each year. Make a table that lists in descending order of the proportion of human-caused fires per year

calfire_causes <- calfire %>%
    group_by(year_, cause2) %>%
    summarise(n_cause = n()) %>%
    mutate(prop_cause = n_cause/sum(n_cause)) 

calfire_causes %>%
    filter(cause2 == "Human") %>%
    arrange(desc(prop_cause))

## # A tibble: 68 x 4
## # Groups:   year_ [68]
##    year_ cause2 n_cause prop_cause
##    <dbl> <chr>    <int>      <dbl>
##  1  2002 Human      178      0.733
##  2  2004 Human      192      0.693
##  3  2001 Human      136      0.657
##  4  1997 Human      116      0.620
##  5  2005 Human      183      0.598
##  6  2000 Human      111      0.581
##  7  2011 Human      179      0.565
##  8  1995 Human      115      0.553
##  9  2007 Human      192      0.550
## 10  2012 Human      190      0.541
## #  with 58 more rows
…
